('C:\\Users\\Fallasin\\Documents\\QtProjects\\WindowsInstallationWizard\\InstallationWizardGui\\windows-executables\\build\\exeLinkToWingetInstallScript\\exeLinkToWingetInstallScript.pkg',
 {'BINARY': True,
  'DATA': True,
  'EXECUTABLE': True,
  'EXTENSION': True,
  'PYMODULE': True,
  'PYSOURCE': True,
  'PYZ': False,
  'SPLASH': True,
  'SYMLINK': False},
 [('pyi-contents-directory _internal', '', 'OPTION'),
  ('PYZ-00.pyz',
   'C:\\Users\\Fallasin\\Documents\\QtProjects\\WindowsInstallationWizard\\InstallationWizardGui\\windows-executables\\build\\exeLinkToWingetInstallScript\\PYZ-00.pyz',
   'PYZ'),
  ('struct',
   'C:\\Users\\Fallasin\\Documents\\QtProjects\\WindowsInstallationWizard\\InstallationWizardGui\\windows-executables\\build\\exeLinkToWingetInstallScript\\localpycs\\struct.pyc',
   'PYMODULE'),
  ('pyimod01_archive',
   'C:\\Users\\Fallasin\\Documents\\QtProjects\\WindowsInstallationWizard\\InstallationWizardGui\\windows-executables\\build\\exeLinkToWingetInstallScript\\localpycs\\pyimod01_archive.pyc',
   'PYMODULE'),
  ('pyimod02_importers',
   'C:\\Users\\Fallasin\\Documents\\QtProjects\\WindowsInstallationWizard\\InstallationWizardGui\\windows-executables\\build\\exeLinkToWingetInstallScript\\localpycs\\pyimod02_importers.pyc',
   'PYMODULE'),
  ('pyimod03_ctypes',
   'C:\\Users\\Fallasin\\Documents\\QtProjects\\WindowsInstallationWizard\\InstallationWizardGui\\windows-executables\\build\\exeLinkToWingetInstallScript\\localpycs\\pyimod03_ctypes.pyc',
   'PYMODULE'),
  ('pyimod04_pywin32',
   'C:\\Users\\Fallasin\\Documents\\QtProjects\\WindowsInstallationWizard\\InstallationWizardGui\\windows-executables\\build\\exeLinkToWingetInstallScript\\localpycs\\pyimod04_pywin32.pyc',
   'PYMODULE'),
  ('pyiboot01_bootstrap',
   'C:\\Users\\Fallasin\\Documents\\QtProjects\\untitled2\\venv\\Lib\\site-packages\\PyInstaller\\loader\\pyiboot01_bootstrap.py',
   'PYSOURCE'),
  ('pyi_rth_inspect',
   'C:\\Users\\Fallasin\\Documents\\QtProjects\\untitled2\\venv\\Lib\\site-packages\\PyInstaller\\hooks\\rthooks\\pyi_rth_inspect.py',
   'PYSOURCE'),
  ('exeLinkToWingetInstallScript',
   'C:\\Users\\Fallasin\\Documents\\QtProjects\\WindowsInstallationWizard\\InstallationWizardGui\\windows-executables\\exeLinkToWingetInstallScript.py',
   'PYSOURCE'),
  ('python311.dll', 'C:\\Python311\\python311.dll', 'BINARY'),
  ('_decimal.pyd', 'C:\\Python311\\DLLs\\_decimal.pyd', 'EXTENSION'),
  ('_hashlib.pyd', 'C:\\Python311\\DLLs\\_hashlib.pyd', 'EXTENSION'),
  ('_lzma.pyd', 'C:\\Python311\\DLLs\\_lzma.pyd', 'EXTENSION'),
  ('_bz2.pyd', 'C:\\Python311\\DLLs\\_bz2.pyd', 'EXTENSION'),
  ('unicodedata.pyd', 'C:\\Python311\\DLLs\\unicodedata.pyd', 'EXTENSION'),
  ('select.pyd', 'C:\\Python311\\DLLs\\select.pyd', 'EXTENSION'),
  ('_socket.pyd', 'C:\\Python311\\DLLs\\_socket.pyd', 'EXTENSION'),
  ('api-ms-win-crt-filesystem-l1-1-0.dll',
   'C:\\Program '
   'Files\\Java\\graalvm-jdk-21\\bin\\api-ms-win-crt-filesystem-l1-1-0.dll',
   'BINARY'),
  ('api-ms-win-crt-locale-l1-1-0.dll',
   'C:\\Program '
   'Files\\Java\\graalvm-jdk-21\\bin\\api-ms-win-crt-locale-l1-1-0.dll',
   'BINARY'),
  ('api-ms-win-crt-environment-l1-1-0.dll',
   'C:\\Program '
   'Files\\Java\\graalvm-jdk-21\\bin\\api-ms-win-crt-environment-l1-1-0.dll',
   'BINARY'),
  ('api-ms-win-crt-string-l1-1-0.dll',
   'C:\\Program '
   'Files\\Java\\graalvm-jdk-21\\bin\\api-ms-win-crt-string-l1-1-0.dll',
   'BINARY'),
  ('api-ms-win-crt-math-l1-1-0.dll',
   'C:\\Program '
   'Files\\Java\\graalvm-jdk-21\\bin\\api-ms-win-crt-math-l1-1-0.dll',
   'BINARY'),
  ('VCRUNTIME140.dll', 'C:\\Python311\\VCRUNTIME140.dll', 'BINARY'),
  ('api-ms-win-crt-stdio-l1-1-0.dll',
   'C:\\Program '
   'Files\\Java\\graalvm-jdk-21\\bin\\api-ms-win-crt-stdio-l1-1-0.dll',
   'BINARY'),
  ('api-ms-win-crt-heap-l1-1-0.dll',
   'C:\\Program '
   'Files\\Java\\graalvm-jdk-21\\bin\\api-ms-win-crt-heap-l1-1-0.dll',
   'BINARY'),
  ('api-ms-win-crt-time-l1-1-0.dll',
   'C:\\Program '
   'Files\\Java\\graalvm-jdk-21\\bin\\api-ms-win-crt-time-l1-1-0.dll',
   'BINARY'),
  ('api-ms-win-crt-process-l1-1-0.dll',
   'C:\\Program '
   'Files\\Java\\graalvm-jdk-21\\bin\\api-ms-win-crt-process-l1-1-0.dll',
   'BINARY'),
  ('api-ms-win-crt-conio-l1-1-0.dll',
   'C:\\Program '
   'Files\\Java\\graalvm-jdk-21\\bin\\api-ms-win-crt-conio-l1-1-0.dll',
   'BINARY'),
  ('api-ms-win-crt-convert-l1-1-0.dll',
   'C:\\Program '
   'Files\\Java\\graalvm-jdk-21\\bin\\api-ms-win-crt-convert-l1-1-0.dll',
   'BINARY'),
  ('api-ms-win-crt-runtime-l1-1-0.dll',
   'C:\\Program '
   'Files\\Java\\graalvm-jdk-21\\bin\\api-ms-win-crt-runtime-l1-1-0.dll',
   'BINARY'),
  ('libcrypto-3.dll', 'C:\\Python311\\DLLs\\libcrypto-3.dll', 'BINARY'),
  ('ucrtbase.dll',
   'C:\\Program Files\\Java\\graalvm-jdk-21\\bin\\ucrtbase.dll',
   'BINARY'),
  ('api-ms-win-crt-utility-l1-1-0.dll',
   'C:\\Program '
   'Files\\Java\\graalvm-jdk-21\\bin\\api-ms-win-crt-utility-l1-1-0.dll',
   'BINARY'),
  ('api-ms-win-core-namedpipe-l1-1-0.dll',
   'C:\\Program '
   'Files\\Java\\graalvm-jdk-21\\bin\\api-ms-win-core-namedpipe-l1-1-0.dll',
   'BINARY'),
  ('api-ms-win-core-util-l1-1-0.dll',
   'C:\\Program '
   'Files\\Java\\graalvm-jdk-21\\bin\\api-ms-win-core-util-l1-1-0.dll',
   'BINARY'),
  ('api-ms-win-core-file-l1-2-0.dll',
   'C:\\Program '
   'Files\\Java\\graalvm-jdk-21\\bin\\api-ms-win-core-file-l1-2-0.dll',
   'BINARY'),
  ('api-ms-win-core-rtlsupport-l1-1-0.dll',
   'C:\\Program '
   'Files\\Java\\graalvm-jdk-21\\bin\\api-ms-win-core-rtlsupport-l1-1-0.dll',
   'BINARY'),
  ('api-ms-win-core-interlocked-l1-1-0.dll',
   'C:\\Program '
   'Files\\Java\\graalvm-jdk-21\\bin\\api-ms-win-core-interlocked-l1-1-0.dll',
   'BINARY'),
  ('api-ms-win-core-synch-l1-1-0.dll',
   'C:\\Program '
   'Files\\Java\\graalvm-jdk-21\\bin\\api-ms-win-core-synch-l1-1-0.dll',
   'BINARY'),
  ('api-ms-win-core-memory-l1-1-0.dll',
   'C:\\Program '
   'Files\\Java\\graalvm-jdk-21\\bin\\api-ms-win-core-memory-l1-1-0.dll',
   'BINARY'),
  ('api-ms-win-core-console-l1-1-0.dll',
   'C:\\Program '
   'Files\\Java\\graalvm-jdk-21\\bin\\api-ms-win-core-console-l1-1-0.dll',
   'BINARY'),
  ('api-ms-win-core-debug-l1-1-0.dll',
   'C:\\Program '
   'Files\\Java\\graalvm-jdk-21\\bin\\api-ms-win-core-debug-l1-1-0.dll',
   'BINARY'),
  ('api-ms-win-core-file-l2-1-0.dll',
   'C:\\Program '
   'Files\\Java\\graalvm-jdk-21\\bin\\api-ms-win-core-file-l2-1-0.dll',
   'BINARY'),
  ('api-ms-win-core-processthreads-l1-1-1.dll',
   'C:\\Program '
   'Files\\Java\\graalvm-jdk-21\\bin\\api-ms-win-core-processthreads-l1-1-1.dll',
   'BINARY'),
  ('api-ms-win-core-file-l1-1-0.dll',
   'C:\\Program '
   'Files\\Java\\graalvm-jdk-21\\bin\\api-ms-win-core-file-l1-1-0.dll',
   'BINARY'),
  ('api-ms-win-core-datetime-l1-1-0.dll',
   'C:\\Program '
   'Files\\Java\\graalvm-jdk-21\\bin\\api-ms-win-core-datetime-l1-1-0.dll',
   'BINARY'),
  ('api-ms-win-core-processthreads-l1-1-0.dll',
   'C:\\Program '
   'Files\\Java\\graalvm-jdk-21\\bin\\api-ms-win-core-processthreads-l1-1-0.dll',
   'BINARY'),
  ('api-ms-win-core-libraryloader-l1-1-0.dll',
   'C:\\Program '
   'Files\\Java\\graalvm-jdk-21\\bin\\api-ms-win-core-libraryloader-l1-1-0.dll',
   'BINARY'),
  ('api-ms-win-core-localization-l1-2-0.dll',
   'C:\\Program '
   'Files\\Java\\graalvm-jdk-21\\bin\\api-ms-win-core-localization-l1-2-0.dll',
   'BINARY'),
  ('api-ms-win-core-timezone-l1-1-0.dll',
   'C:\\Program '
   'Files\\Java\\graalvm-jdk-21\\bin\\api-ms-win-core-timezone-l1-1-0.dll',
   'BINARY'),
  ('api-ms-win-core-errorhandling-l1-1-0.dll',
   'C:\\Program '
   'Files\\Java\\graalvm-jdk-21\\bin\\api-ms-win-core-errorhandling-l1-1-0.dll',
   'BINARY'),
  ('api-ms-win-core-handle-l1-1-0.dll',
   'C:\\Program '
   'Files\\Java\\graalvm-jdk-21\\bin\\api-ms-win-core-handle-l1-1-0.dll',
   'BINARY'),
  ('api-ms-win-core-sysinfo-l1-1-0.dll',
   'C:\\Program '
   'Files\\Java\\graalvm-jdk-21\\bin\\api-ms-win-core-sysinfo-l1-1-0.dll',
   'BINARY'),
  ('api-ms-win-core-string-l1-1-0.dll',
   'C:\\Program '
   'Files\\Java\\graalvm-jdk-21\\bin\\api-ms-win-core-string-l1-1-0.dll',
   'BINARY'),
  ('api-ms-win-core-synch-l1-2-0.dll',
   'C:\\Program '
   'Files\\Java\\graalvm-jdk-21\\bin\\api-ms-win-core-synch-l1-2-0.dll',
   'BINARY'),
  ('api-ms-win-core-heap-l1-1-0.dll',
   'C:\\Program '
   'Files\\Java\\graalvm-jdk-21\\bin\\api-ms-win-core-heap-l1-1-0.dll',
   'BINARY'),
  ('api-ms-win-core-profile-l1-1-0.dll',
   'C:\\Program '
   'Files\\Java\\graalvm-jdk-21\\bin\\api-ms-win-core-profile-l1-1-0.dll',
   'BINARY'),
  ('api-ms-win-core-processenvironment-l1-1-0.dll',
   'C:\\Program '
   'Files\\Java\\graalvm-jdk-21\\bin\\api-ms-win-core-processenvironment-l1-1-0.dll',
   'BINARY'),
  ('base_library.zip',
   'C:\\Users\\Fallasin\\Documents\\QtProjects\\WindowsInstallationWizard\\InstallationWizardGui\\windows-executables\\build\\exeLinkToWingetInstallScript\\base_library.zip',
   'DATA')],
 'python311.dll',
 False,
 False,
 False,
 [],
 None,
 None,
 None)
