([('widget.exe',
   'C:\\Users\\Fallasin\\Documents\\QtProjects\\untitled2\\build\\widget\\widget.exe',
   'EXECUTABLE'),
  ('python311.dll', 'C:\\Python311\\python311.dll', 'BINARY'),
  ('PySide6\\opengl32sw.dll',
   'C:\\Users\\Fallasin\\Documents\\QtProjects\\untitled2\\venv\\Lib\\site-packages\\PySide6\\opengl32sw.dll',
   'BINARY'),
  ('PySide6\\plugins\\tls\\qschannelbackend.dll',
   'C:\\Users\\Fallasin\\Documents\\QtProjects\\untitled2\\venv\\Lib\\site-packages\\PySide6\\plugins\\tls\\qschannelbackend.dll',
   'BINARY'),
  ('PySide6\\plugins\\networkinformation\\qnetworklistmanager.dll',
   'C:\\Users\\Fallasin\\Documents\\QtProjects\\untitled2\\venv\\Lib\\site-packages\\PySide6\\plugins\\networkinformation\\qnetworklistmanager.dll',
   'BINARY'),
  ('PySide6\\plugins\\tls\\qcertonlybackend.dll',
   'C:\\Users\\Fallasin\\Documents\\QtProjects\\untitled2\\venv\\Lib\\site-packages\\PySide6\\plugins\\tls\\qcertonlybackend.dll',
   'BINARY'),
  ('PySide6\\plugins\\tls\\qopensslbackend.dll',
   'C:\\Users\\Fallasin\\Documents\\QtProjects\\untitled2\\venv\\Lib\\site-packages\\PySide6\\plugins\\tls\\qopensslbackend.dll',
   'BINARY'),
  ('libcrypto-3-x64.dll', 'C:\\tools\\php82\\libcrypto-3-x64.dll', 'BINARY'),
  ('libssl-3-x64.dll', 'C:\\tools\\php82\\libssl-3-x64.dll', 'BINARY'),
  ('PySide6\\plugins\\imageformats\\qtiff.dll',
   'C:\\Users\\Fallasin\\Documents\\QtProjects\\untitled2\\venv\\Lib\\site-packages\\PySide6\\plugins\\imageformats\\qtiff.dll',
   'BINARY'),
  ('PySide6\\plugins\\generic\\qtuiotouchplugin.dll',
   'C:\\Users\\Fallasin\\Documents\\QtProjects\\untitled2\\venv\\Lib\\site-packages\\PySide6\\plugins\\generic\\qtuiotouchplugin.dll',
   'BINARY'),
  ('PySide6\\plugins\\imageformats\\qicns.dll',
   'C:\\Users\\Fallasin\\Documents\\QtProjects\\untitled2\\venv\\Lib\\site-packages\\PySide6\\plugins\\imageformats\\qicns.dll',
   'BINARY'),
  ('PySide6\\plugins\\platforms\\qdirect2d.dll',
   'C:\\Users\\Fallasin\\Documents\\QtProjects\\untitled2\\venv\\Lib\\site-packages\\PySide6\\plugins\\platforms\\qdirect2d.dll',
   'BINARY'),
  ('PySide6\\plugins\\imageformats\\qpdf.dll',
   'C:\\Users\\Fallasin\\Documents\\QtProjects\\untitled2\\venv\\Lib\\site-packages\\PySide6\\plugins\\imageformats\\qpdf.dll',
   'BINARY'),
  ('PySide6\\plugins\\imageformats\\qjpeg.dll',
   'C:\\Users\\Fallasin\\Documents\\QtProjects\\untitled2\\venv\\Lib\\site-packages\\PySide6\\plugins\\imageformats\\qjpeg.dll',
   'BINARY'),
  ('PySide6\\plugins\\imageformats\\qgif.dll',
   'C:\\Users\\Fallasin\\Documents\\QtProjects\\untitled2\\venv\\Lib\\site-packages\\PySide6\\plugins\\imageformats\\qgif.dll',
   'BINARY'),
  ('PySide6\\plugins\\imageformats\\qtga.dll',
   'C:\\Users\\Fallasin\\Documents\\QtProjects\\untitled2\\venv\\Lib\\site-packages\\PySide6\\plugins\\imageformats\\qtga.dll',
   'BINARY'),
  ('PySide6\\plugins\\imageformats\\qwbmp.dll',
   'C:\\Users\\Fallasin\\Documents\\QtProjects\\untitled2\\venv\\Lib\\site-packages\\PySide6\\plugins\\imageformats\\qwbmp.dll',
   'BINARY'),
  ('PySide6\\plugins\\imageformats\\qwebp.dll',
   'C:\\Users\\Fallasin\\Documents\\QtProjects\\untitled2\\venv\\Lib\\site-packages\\PySide6\\plugins\\imageformats\\qwebp.dll',
   'BINARY'),
  ('PySide6\\plugins\\iconengines\\qsvgicon.dll',
   'C:\\Users\\Fallasin\\Documents\\QtProjects\\untitled2\\venv\\Lib\\site-packages\\PySide6\\plugins\\iconengines\\qsvgicon.dll',
   'BINARY'),
  ('PySide6\\plugins\\platforminputcontexts\\qtvirtualkeyboardplugin.dll',
   'C:\\Users\\Fallasin\\Documents\\QtProjects\\untitled2\\venv\\Lib\\site-packages\\PySide6\\plugins\\platforminputcontexts\\qtvirtualkeyboardplugin.dll',
   'BINARY'),
  ('PySide6\\plugins\\platforms\\qminimal.dll',
   'C:\\Users\\Fallasin\\Documents\\QtProjects\\untitled2\\venv\\Lib\\site-packages\\PySide6\\plugins\\platforms\\qminimal.dll',
   'BINARY'),
  ('PySide6\\plugins\\platforms\\qwindows.dll',
   'C:\\Users\\Fallasin\\Documents\\QtProjects\\untitled2\\venv\\Lib\\site-packages\\PySide6\\plugins\\platforms\\qwindows.dll',
   'BINARY'),
  ('PySide6\\plugins\\imageformats\\qico.dll',
   'C:\\Users\\Fallasin\\Documents\\QtProjects\\untitled2\\venv\\Lib\\site-packages\\PySide6\\plugins\\imageformats\\qico.dll',
   'BINARY'),
  ('PySide6\\plugins\\imageformats\\qsvg.dll',
   'C:\\Users\\Fallasin\\Documents\\QtProjects\\untitled2\\venv\\Lib\\site-packages\\PySide6\\plugins\\imageformats\\qsvg.dll',
   'BINARY'),
  ('PySide6\\plugins\\platforms\\qoffscreen.dll',
   'C:\\Users\\Fallasin\\Documents\\QtProjects\\untitled2\\venv\\Lib\\site-packages\\PySide6\\plugins\\platforms\\qoffscreen.dll',
   'BINARY'),
  ('PySide6\\plugins\\styles\\qwindowsvistastyle.dll',
   'C:\\Users\\Fallasin\\Documents\\QtProjects\\untitled2\\venv\\Lib\\site-packages\\PySide6\\plugins\\styles\\qwindowsvistastyle.dll',
   'BINARY'),
  ('_decimal.pyd', 'C:\\Python311\\DLLs\\_decimal.pyd', 'EXTENSION'),
  ('_hashlib.pyd', 'C:\\Python311\\DLLs\\_hashlib.pyd', 'EXTENSION'),
  ('_lzma.pyd', 'C:\\Python311\\DLLs\\_lzma.pyd', 'EXTENSION'),
  ('_bz2.pyd', 'C:\\Python311\\DLLs\\_bz2.pyd', 'EXTENSION'),
  ('unicodedata.pyd', 'C:\\Python311\\DLLs\\unicodedata.pyd', 'EXTENSION'),
  ('select.pyd', 'C:\\Python311\\DLLs\\select.pyd', 'EXTENSION'),
  ('_socket.pyd', 'C:\\Python311\\DLLs\\_socket.pyd', 'EXTENSION'),
  ('PySide6\\QtNetwork.pyd',
   'C:\\Users\\Fallasin\\Documents\\QtProjects\\untitled2\\venv\\Lib\\site-packages\\PySide6\\QtNetwork.pyd',
   'EXTENSION'),
  ('shiboken6\\Shiboken.pyd',
   'C:\\Users\\Fallasin\\Documents\\QtProjects\\untitled2\\venv\\Lib\\site-packages\\shiboken6\\Shiboken.pyd',
   'EXTENSION'),
  ('PySide6\\QtGui.pyd',
   'C:\\Users\\Fallasin\\Documents\\QtProjects\\untitled2\\venv\\Lib\\site-packages\\PySide6\\QtGui.pyd',
   'EXTENSION'),
  ('PySide6\\QtUiTools.pyd',
   'C:\\Users\\Fallasin\\Documents\\QtProjects\\untitled2\\venv\\Lib\\site-packages\\PySide6\\QtUiTools.pyd',
   'EXTENSION'),
  ('PySide6\\QtOpenGLWidgets.pyd',
   'C:\\Users\\Fallasin\\Documents\\QtProjects\\untitled2\\venv\\Lib\\site-packages\\PySide6\\QtOpenGLWidgets.pyd',
   'EXTENSION'),
  ('PySide6\\QtOpenGL.pyd',
   'C:\\Users\\Fallasin\\Documents\\QtProjects\\untitled2\\venv\\Lib\\site-packages\\PySide6\\QtOpenGL.pyd',
   'EXTENSION'),
  ('PySide6\\QtCore.pyd',
   'C:\\Users\\Fallasin\\Documents\\QtProjects\\untitled2\\venv\\Lib\\site-packages\\PySide6\\QtCore.pyd',
   'EXTENSION'),
  ('PySide6\\QtWidgets.pyd',
   'C:\\Users\\Fallasin\\Documents\\QtProjects\\untitled2\\venv\\Lib\\site-packages\\PySide6\\QtWidgets.pyd',
   'EXTENSION'),
  ('api-ms-win-crt-locale-l1-1-0.dll',
   'C:\\Program '
   'Files\\Java\\graalvm-jdk-21\\bin\\api-ms-win-crt-locale-l1-1-0.dll',
   'BINARY'),
  ('api-ms-win-crt-convert-l1-1-0.dll',
   'C:\\Program '
   'Files\\Java\\graalvm-jdk-21\\bin\\api-ms-win-crt-convert-l1-1-0.dll',
   'BINARY'),
  ('api-ms-win-crt-math-l1-1-0.dll',
   'C:\\Program '
   'Files\\Java\\graalvm-jdk-21\\bin\\api-ms-win-crt-math-l1-1-0.dll',
   'BINARY'),
  ('VCRUNTIME140.dll', 'C:\\Python311\\VCRUNTIME140.dll', 'BINARY'),
  ('api-ms-win-crt-time-l1-1-0.dll',
   'C:\\Program '
   'Files\\Java\\graalvm-jdk-21\\bin\\api-ms-win-crt-time-l1-1-0.dll',
   'BINARY'),
  ('api-ms-win-crt-process-l1-1-0.dll',
   'C:\\Program '
   'Files\\Java\\graalvm-jdk-21\\bin\\api-ms-win-crt-process-l1-1-0.dll',
   'BINARY'),
  ('api-ms-win-crt-heap-l1-1-0.dll',
   'C:\\Program '
   'Files\\Java\\graalvm-jdk-21\\bin\\api-ms-win-crt-heap-l1-1-0.dll',
   'BINARY'),
  ('api-ms-win-crt-string-l1-1-0.dll',
   'C:\\Program '
   'Files\\Java\\graalvm-jdk-21\\bin\\api-ms-win-crt-string-l1-1-0.dll',
   'BINARY'),
  ('api-ms-win-crt-stdio-l1-1-0.dll',
   'C:\\Program '
   'Files\\Java\\graalvm-jdk-21\\bin\\api-ms-win-crt-stdio-l1-1-0.dll',
   'BINARY'),
  ('api-ms-win-crt-conio-l1-1-0.dll',
   'C:\\Program '
   'Files\\Java\\graalvm-jdk-21\\bin\\api-ms-win-crt-conio-l1-1-0.dll',
   'BINARY'),
  ('api-ms-win-crt-filesystem-l1-1-0.dll',
   'C:\\Program '
   'Files\\Java\\graalvm-jdk-21\\bin\\api-ms-win-crt-filesystem-l1-1-0.dll',
   'BINARY'),
  ('api-ms-win-crt-environment-l1-1-0.dll',
   'C:\\Program '
   'Files\\Java\\graalvm-jdk-21\\bin\\api-ms-win-crt-environment-l1-1-0.dll',
   'BINARY'),
  ('api-ms-win-crt-runtime-l1-1-0.dll',
   'C:\\Program '
   'Files\\Java\\graalvm-jdk-21\\bin\\api-ms-win-crt-runtime-l1-1-0.dll',
   'BINARY'),
  ('VCRUNTIME140_1.dll', 'C:\\Python311\\VCRUNTIME140_1.dll', 'BINARY'),
  ('PySide6\\Qt6Network.dll',
   'C:\\Users\\Fallasin\\Documents\\QtProjects\\untitled2\\venv\\Lib\\site-packages\\PySide6\\Qt6Network.dll',
   'BINARY'),
  ('shiboken6\\MSVCP140.dll',
   'C:\\Users\\Fallasin\\Documents\\QtProjects\\untitled2\\venv\\Lib\\site-packages\\shiboken6\\MSVCP140.dll',
   'BINARY'),
  ('PySide6\\Qt6Core.dll',
   'C:\\Users\\Fallasin\\Documents\\QtProjects\\untitled2\\venv\\Lib\\site-packages\\PySide6\\Qt6Core.dll',
   'BINARY'),
  ('api-ms-win-crt-utility-l1-1-0.dll',
   'C:\\Program '
   'Files\\Java\\graalvm-jdk-21\\bin\\api-ms-win-crt-utility-l1-1-0.dll',
   'BINARY'),
  ('PySide6\\Qt6Gui.dll',
   'C:\\Users\\Fallasin\\Documents\\QtProjects\\untitled2\\venv\\Lib\\site-packages\\PySide6\\Qt6Gui.dll',
   'BINARY'),
  ('PySide6\\Qt6Pdf.dll',
   'C:\\Users\\Fallasin\\Documents\\QtProjects\\untitled2\\venv\\Lib\\site-packages\\PySide6\\Qt6Pdf.dll',
   'BINARY'),
  ('PySide6\\Qt6Svg.dll',
   'C:\\Users\\Fallasin\\Documents\\QtProjects\\untitled2\\venv\\Lib\\site-packages\\PySide6\\Qt6Svg.dll',
   'BINARY'),
  ('PySide6\\Qt6VirtualKeyboard.dll',
   'C:\\Users\\Fallasin\\Documents\\QtProjects\\untitled2\\venv\\Lib\\site-packages\\PySide6\\Qt6VirtualKeyboard.dll',
   'BINARY'),
  ('PySide6\\Qt6Widgets.dll',
   'C:\\Users\\Fallasin\\Documents\\QtProjects\\untitled2\\venv\\Lib\\site-packages\\PySide6\\Qt6Widgets.dll',
   'BINARY'),
  ('libcrypto-3.dll', 'C:\\Python311\\DLLs\\libcrypto-3.dll', 'BINARY'),
  ('PySide6\\MSVCP140.dll',
   'C:\\Users\\Fallasin\\Documents\\QtProjects\\untitled2\\venv\\Lib\\site-packages\\PySide6\\MSVCP140.dll',
   'BINARY'),
  ('PySide6\\VCRUNTIME140_1.dll',
   'C:\\Users\\Fallasin\\Documents\\QtProjects\\untitled2\\venv\\Lib\\site-packages\\PySide6\\VCRUNTIME140_1.dll',
   'BINARY'),
  ('PySide6\\VCRUNTIME140.dll',
   'C:\\Users\\Fallasin\\Documents\\QtProjects\\untitled2\\venv\\Lib\\site-packages\\PySide6\\VCRUNTIME140.dll',
   'BINARY'),
  ('shiboken6\\shiboken6.abi3.dll',
   'C:\\Users\\Fallasin\\Documents\\QtProjects\\untitled2\\venv\\Lib\\site-packages\\shiboken6\\shiboken6.abi3.dll',
   'BINARY'),
  ('PySide6\\pyside6.abi3.dll',
   'C:\\Users\\Fallasin\\Documents\\QtProjects\\untitled2\\venv\\Lib\\site-packages\\PySide6\\pyside6.abi3.dll',
   'BINARY'),
  ('python3.dll', 'C:\\Python311\\python3.dll', 'BINARY'),
  ('shiboken6\\VCRUNTIME140.dll',
   'C:\\Users\\Fallasin\\Documents\\QtProjects\\untitled2\\venv\\Lib\\site-packages\\shiboken6\\VCRUNTIME140.dll',
   'BINARY'),
  ('shiboken6\\VCRUNTIME140_1.dll',
   'C:\\Users\\Fallasin\\Documents\\QtProjects\\untitled2\\venv\\Lib\\site-packages\\shiboken6\\VCRUNTIME140_1.dll',
   'BINARY'),
  ('PySide6\\MSVCP140_2.dll',
   'C:\\Users\\Fallasin\\Documents\\QtProjects\\untitled2\\venv\\Lib\\site-packages\\PySide6\\MSVCP140_2.dll',
   'BINARY'),
  ('PySide6\\Qt6UiTools.dll',
   'C:\\Users\\Fallasin\\Documents\\QtProjects\\untitled2\\venv\\Lib\\site-packages\\PySide6\\Qt6UiTools.dll',
   'BINARY'),
  ('PySide6\\Qt6OpenGLWidgets.dll',
   'C:\\Users\\Fallasin\\Documents\\QtProjects\\untitled2\\venv\\Lib\\site-packages\\PySide6\\Qt6OpenGLWidgets.dll',
   'BINARY'),
  ('PySide6\\Qt6OpenGL.dll',
   'C:\\Users\\Fallasin\\Documents\\QtProjects\\untitled2\\venv\\Lib\\site-packages\\PySide6\\Qt6OpenGL.dll',
   'BINARY'),
  ('ucrtbase.dll',
   'C:\\Program Files\\Java\\graalvm-jdk-21\\bin\\ucrtbase.dll',
   'BINARY'),
  ('PySide6\\MSVCP140_1.dll',
   'C:\\Users\\Fallasin\\Documents\\QtProjects\\untitled2\\venv\\Lib\\site-packages\\PySide6\\MSVCP140_1.dll',
   'BINARY'),
  ('api-ms-win-core-synch-l1-2-0.dll',
   'C:\\Program '
   'Files\\Java\\graalvm-jdk-21\\bin\\api-ms-win-core-synch-l1-2-0.dll',
   'BINARY'),
  ('PySide6\\Qt6Quick.dll',
   'C:\\Users\\Fallasin\\Documents\\QtProjects\\untitled2\\venv\\Lib\\site-packages\\PySide6\\Qt6Quick.dll',
   'BINARY'),
  ('PySide6\\Qt6Qml.dll',
   'C:\\Users\\Fallasin\\Documents\\QtProjects\\untitled2\\venv\\Lib\\site-packages\\PySide6\\Qt6Qml.dll',
   'BINARY'),
  ('api-ms-win-core-file-l1-2-0.dll',
   'C:\\Program '
   'Files\\Java\\graalvm-jdk-21\\bin\\api-ms-win-core-file-l1-2-0.dll',
   'BINARY'),
  ('api-ms-win-core-memory-l1-1-0.dll',
   'C:\\Program '
   'Files\\Java\\graalvm-jdk-21\\bin\\api-ms-win-core-memory-l1-1-0.dll',
   'BINARY'),
  ('api-ms-win-core-processenvironment-l1-1-0.dll',
   'C:\\Program '
   'Files\\Java\\graalvm-jdk-21\\bin\\api-ms-win-core-processenvironment-l1-1-0.dll',
   'BINARY'),
  ('api-ms-win-core-interlocked-l1-1-0.dll',
   'C:\\Program '
   'Files\\Java\\graalvm-jdk-21\\bin\\api-ms-win-core-interlocked-l1-1-0.dll',
   'BINARY'),
  ('api-ms-win-core-handle-l1-1-0.dll',
   'C:\\Program '
   'Files\\Java\\graalvm-jdk-21\\bin\\api-ms-win-core-handle-l1-1-0.dll',
   'BINARY'),
  ('api-ms-win-core-datetime-l1-1-0.dll',
   'C:\\Program '
   'Files\\Java\\graalvm-jdk-21\\bin\\api-ms-win-core-datetime-l1-1-0.dll',
   'BINARY'),
  ('api-ms-win-core-file-l1-1-0.dll',
   'C:\\Program '
   'Files\\Java\\graalvm-jdk-21\\bin\\api-ms-win-core-file-l1-1-0.dll',
   'BINARY'),
  ('api-ms-win-core-util-l1-1-0.dll',
   'C:\\Program '
   'Files\\Java\\graalvm-jdk-21\\bin\\api-ms-win-core-util-l1-1-0.dll',
   'BINARY'),
  ('api-ms-win-core-errorhandling-l1-1-0.dll',
   'C:\\Program '
   'Files\\Java\\graalvm-jdk-21\\bin\\api-ms-win-core-errorhandling-l1-1-0.dll',
   'BINARY'),
  ('api-ms-win-core-string-l1-1-0.dll',
   'C:\\Program '
   'Files\\Java\\graalvm-jdk-21\\bin\\api-ms-win-core-string-l1-1-0.dll',
   'BINARY'),
  ('api-ms-win-core-timezone-l1-1-0.dll',
   'C:\\Program '
   'Files\\Java\\graalvm-jdk-21\\bin\\api-ms-win-core-timezone-l1-1-0.dll',
   'BINARY'),
  ('api-ms-win-core-console-l1-1-0.dll',
   'C:\\Program '
   'Files\\Java\\graalvm-jdk-21\\bin\\api-ms-win-core-console-l1-1-0.dll',
   'BINARY'),
  ('api-ms-win-core-processthreads-l1-1-1.dll',
   'C:\\Program '
   'Files\\Java\\graalvm-jdk-21\\bin\\api-ms-win-core-processthreads-l1-1-1.dll',
   'BINARY'),
  ('api-ms-win-core-debug-l1-1-0.dll',
   'C:\\Program '
   'Files\\Java\\graalvm-jdk-21\\bin\\api-ms-win-core-debug-l1-1-0.dll',
   'BINARY'),
  ('api-ms-win-core-heap-l1-1-0.dll',
   'C:\\Program '
   'Files\\Java\\graalvm-jdk-21\\bin\\api-ms-win-core-heap-l1-1-0.dll',
   'BINARY'),
  ('api-ms-win-core-profile-l1-1-0.dll',
   'C:\\Program '
   'Files\\Java\\graalvm-jdk-21\\bin\\api-ms-win-core-profile-l1-1-0.dll',
   'BINARY'),
  ('api-ms-win-core-localization-l1-2-0.dll',
   'C:\\Program '
   'Files\\Java\\graalvm-jdk-21\\bin\\api-ms-win-core-localization-l1-2-0.dll',
   'BINARY'),
  ('api-ms-win-core-libraryloader-l1-1-0.dll',
   'C:\\Program '
   'Files\\Java\\graalvm-jdk-21\\bin\\api-ms-win-core-libraryloader-l1-1-0.dll',
   'BINARY'),
  ('api-ms-win-core-sysinfo-l1-1-0.dll',
   'C:\\Program '
   'Files\\Java\\graalvm-jdk-21\\bin\\api-ms-win-core-sysinfo-l1-1-0.dll',
   'BINARY'),
  ('api-ms-win-core-synch-l1-1-0.dll',
   'C:\\Program '
   'Files\\Java\\graalvm-jdk-21\\bin\\api-ms-win-core-synch-l1-1-0.dll',
   'BINARY'),
  ('api-ms-win-core-namedpipe-l1-1-0.dll',
   'C:\\Program '
   'Files\\Java\\graalvm-jdk-21\\bin\\api-ms-win-core-namedpipe-l1-1-0.dll',
   'BINARY'),
  ('api-ms-win-core-file-l2-1-0.dll',
   'C:\\Program '
   'Files\\Java\\graalvm-jdk-21\\bin\\api-ms-win-core-file-l2-1-0.dll',
   'BINARY'),
  ('api-ms-win-core-processthreads-l1-1-0.dll',
   'C:\\Program '
   'Files\\Java\\graalvm-jdk-21\\bin\\api-ms-win-core-processthreads-l1-1-0.dll',
   'BINARY'),
  ('api-ms-win-core-rtlsupport-l1-1-0.dll',
   'C:\\Program '
   'Files\\Java\\graalvm-jdk-21\\bin\\api-ms-win-core-rtlsupport-l1-1-0.dll',
   'BINARY'),
  ('PySide6\\Qt6QmlModels.dll',
   'C:\\Users\\Fallasin\\Documents\\QtProjects\\untitled2\\venv\\Lib\\site-packages\\PySide6\\Qt6QmlModels.dll',
   'BINARY'),
  ('base_library.zip',
   'C:\\Users\\Fallasin\\Documents\\QtProjects\\untitled2\\build\\widget\\base_library.zip',
   'DATA'),
  ('PySide6\\translations\\qt_he.qm',
   'C:\\Users\\Fallasin\\Documents\\QtProjects\\untitled2\\venv\\Lib\\site-packages\\PySide6\\translations\\qt_he.qm',
   'DATA'),
  ('PySide6\\translations\\qt_help_es.qm',
   'C:\\Users\\Fallasin\\Documents\\QtProjects\\untitled2\\venv\\Lib\\site-packages\\PySide6\\translations\\qt_help_es.qm',
   'DATA'),
  ('PySide6\\translations\\qt_de.qm',
   'C:\\Users\\Fallasin\\Documents\\QtProjects\\untitled2\\venv\\Lib\\site-packages\\PySide6\\translations\\qt_de.qm',
   'DATA'),
  ('PySide6\\translations\\qt_help_ja.qm',
   'C:\\Users\\Fallasin\\Documents\\QtProjects\\untitled2\\venv\\Lib\\site-packages\\PySide6\\translations\\qt_help_ja.qm',
   'DATA'),
  ('PySide6\\translations\\qtbase_nn.qm',
   'C:\\Users\\Fallasin\\Documents\\QtProjects\\untitled2\\venv\\Lib\\site-packages\\PySide6\\translations\\qtbase_nn.qm',
   'DATA'),
  ('PySide6\\translations\\qt_hu.qm',
   'C:\\Users\\Fallasin\\Documents\\QtProjects\\untitled2\\venv\\Lib\\site-packages\\PySide6\\translations\\qt_hu.qm',
   'DATA'),
  ('PySide6\\translations\\qt_en.qm',
   'C:\\Users\\Fallasin\\Documents\\QtProjects\\untitled2\\venv\\Lib\\site-packages\\PySide6\\translations\\qt_en.qm',
   'DATA'),
  ('PySide6\\translations\\qt_ca.qm',
   'C:\\Users\\Fallasin\\Documents\\QtProjects\\untitled2\\venv\\Lib\\site-packages\\PySide6\\translations\\qt_ca.qm',
   'DATA'),
  ('PySide6\\translations\\qtbase_hu.qm',
   'C:\\Users\\Fallasin\\Documents\\QtProjects\\untitled2\\venv\\Lib\\site-packages\\PySide6\\translations\\qtbase_hu.qm',
   'DATA'),
  ('PySide6\\translations\\qt_ja.qm',
   'C:\\Users\\Fallasin\\Documents\\QtProjects\\untitled2\\venv\\Lib\\site-packages\\PySide6\\translations\\qt_ja.qm',
   'DATA'),
  ('PySide6\\translations\\qtbase_bg.qm',
   'C:\\Users\\Fallasin\\Documents\\QtProjects\\untitled2\\venv\\Lib\\site-packages\\PySide6\\translations\\qtbase_bg.qm',
   'DATA'),
  ('PySide6\\translations\\qt_sk.qm',
   'C:\\Users\\Fallasin\\Documents\\QtProjects\\untitled2\\venv\\Lib\\site-packages\\PySide6\\translations\\qt_sk.qm',
   'DATA'),
  ('PySide6\\translations\\qtbase_ru.qm',
   'C:\\Users\\Fallasin\\Documents\\QtProjects\\untitled2\\venv\\Lib\\site-packages\\PySide6\\translations\\qtbase_ru.qm',
   'DATA'),
  ('PySide6\\translations\\qtbase_ja.qm',
   'C:\\Users\\Fallasin\\Documents\\QtProjects\\untitled2\\venv\\Lib\\site-packages\\PySide6\\translations\\qtbase_ja.qm',
   'DATA'),
  ('PySide6\\translations\\qtbase_uk.qm',
   'C:\\Users\\Fallasin\\Documents\\QtProjects\\untitled2\\venv\\Lib\\site-packages\\PySide6\\translations\\qtbase_uk.qm',
   'DATA'),
  ('PySide6\\translations\\qtbase_cs.qm',
   'C:\\Users\\Fallasin\\Documents\\QtProjects\\untitled2\\venv\\Lib\\site-packages\\PySide6\\translations\\qtbase_cs.qm',
   'DATA'),
  ('PySide6\\translations\\qt_uk.qm',
   'C:\\Users\\Fallasin\\Documents\\QtProjects\\untitled2\\venv\\Lib\\site-packages\\PySide6\\translations\\qt_uk.qm',
   'DATA'),
  ('PySide6\\translations\\qt_help_cs.qm',
   'C:\\Users\\Fallasin\\Documents\\QtProjects\\untitled2\\venv\\Lib\\site-packages\\PySide6\\translations\\qt_help_cs.qm',
   'DATA'),
  ('PySide6\\translations\\qt_sl.qm',
   'C:\\Users\\Fallasin\\Documents\\QtProjects\\untitled2\\venv\\Lib\\site-packages\\PySide6\\translations\\qt_sl.qm',
   'DATA'),
  ('PySide6\\translations\\qt_help_zh_CN.qm',
   'C:\\Users\\Fallasin\\Documents\\QtProjects\\untitled2\\venv\\Lib\\site-packages\\PySide6\\translations\\qt_help_zh_CN.qm',
   'DATA'),
  ('PySide6\\translations\\qt_help_hr.qm',
   'C:\\Users\\Fallasin\\Documents\\QtProjects\\untitled2\\venv\\Lib\\site-packages\\PySide6\\translations\\qt_help_hr.qm',
   'DATA'),
  ('PySide6\\translations\\qt_bg.qm',
   'C:\\Users\\Fallasin\\Documents\\QtProjects\\untitled2\\venv\\Lib\\site-packages\\PySide6\\translations\\qt_bg.qm',
   'DATA'),
  ('PySide6\\translations\\qt_help_bg.qm',
   'C:\\Users\\Fallasin\\Documents\\QtProjects\\untitled2\\venv\\Lib\\site-packages\\PySide6\\translations\\qt_help_bg.qm',
   'DATA'),
  ('PySide6\\translations\\qtbase_zh_TW.qm',
   'C:\\Users\\Fallasin\\Documents\\QtProjects\\untitled2\\venv\\Lib\\site-packages\\PySide6\\translations\\qtbase_zh_TW.qm',
   'DATA'),
  ('PySide6\\translations\\qtbase_it.qm',
   'C:\\Users\\Fallasin\\Documents\\QtProjects\\untitled2\\venv\\Lib\\site-packages\\PySide6\\translations\\qtbase_it.qm',
   'DATA'),
  ('PySide6\\translations\\qtbase_tr.qm',
   'C:\\Users\\Fallasin\\Documents\\QtProjects\\untitled2\\venv\\Lib\\site-packages\\PySide6\\translations\\qtbase_tr.qm',
   'DATA'),
  ('PySide6\\translations\\qt_help_ar.qm',
   'C:\\Users\\Fallasin\\Documents\\QtProjects\\untitled2\\venv\\Lib\\site-packages\\PySide6\\translations\\qt_help_ar.qm',
   'DATA'),
  ('PySide6\\translations\\qt_nn.qm',
   'C:\\Users\\Fallasin\\Documents\\QtProjects\\untitled2\\venv\\Lib\\site-packages\\PySide6\\translations\\qt_nn.qm',
   'DATA'),
  ('PySide6\\translations\\qt_fr.qm',
   'C:\\Users\\Fallasin\\Documents\\QtProjects\\untitled2\\venv\\Lib\\site-packages\\PySide6\\translations\\qt_fr.qm',
   'DATA'),
  ('PySide6\\translations\\qtbase_zh_CN.qm',
   'C:\\Users\\Fallasin\\Documents\\QtProjects\\untitled2\\venv\\Lib\\site-packages\\PySide6\\translations\\qtbase_zh_CN.qm',
   'DATA'),
  ('PySide6\\translations\\qt_help_tr.qm',
   'C:\\Users\\Fallasin\\Documents\\QtProjects\\untitled2\\venv\\Lib\\site-packages\\PySide6\\translations\\qt_help_tr.qm',
   'DATA'),
  ('PySide6\\translations\\qtbase_lv.qm',
   'C:\\Users\\Fallasin\\Documents\\QtProjects\\untitled2\\venv\\Lib\\site-packages\\PySide6\\translations\\qtbase_lv.qm',
   'DATA'),
  ('PySide6\\translations\\qtbase_he.qm',
   'C:\\Users\\Fallasin\\Documents\\QtProjects\\untitled2\\venv\\Lib\\site-packages\\PySide6\\translations\\qtbase_he.qm',
   'DATA'),
  ('PySide6\\translations\\qt_gl.qm',
   'C:\\Users\\Fallasin\\Documents\\QtProjects\\untitled2\\venv\\Lib\\site-packages\\PySide6\\translations\\qt_gl.qm',
   'DATA'),
  ('PySide6\\translations\\qt_pt_BR.qm',
   'C:\\Users\\Fallasin\\Documents\\QtProjects\\untitled2\\venv\\Lib\\site-packages\\PySide6\\translations\\qt_pt_BR.qm',
   'DATA'),
  ('PySide6\\translations\\qt_ru.qm',
   'C:\\Users\\Fallasin\\Documents\\QtProjects\\untitled2\\venv\\Lib\\site-packages\\PySide6\\translations\\qt_ru.qm',
   'DATA'),
  ('PySide6\\translations\\qt_help_gl.qm',
   'C:\\Users\\Fallasin\\Documents\\QtProjects\\untitled2\\venv\\Lib\\site-packages\\PySide6\\translations\\qt_help_gl.qm',
   'DATA'),
  ('PySide6\\translations\\qt_fi.qm',
   'C:\\Users\\Fallasin\\Documents\\QtProjects\\untitled2\\venv\\Lib\\site-packages\\PySide6\\translations\\qt_fi.qm',
   'DATA'),
  ('PySide6\\translations\\qt_zh_CN.qm',
   'C:\\Users\\Fallasin\\Documents\\QtProjects\\untitled2\\venv\\Lib\\site-packages\\PySide6\\translations\\qt_zh_CN.qm',
   'DATA'),
  ('PySide6\\translations\\qt_ar.qm',
   'C:\\Users\\Fallasin\\Documents\\QtProjects\\untitled2\\venv\\Lib\\site-packages\\PySide6\\translations\\qt_ar.qm',
   'DATA'),
  ('PySide6\\translations\\qt_pl.qm',
   'C:\\Users\\Fallasin\\Documents\\QtProjects\\untitled2\\venv\\Lib\\site-packages\\PySide6\\translations\\qt_pl.qm',
   'DATA'),
  ('PySide6\\translations\\qt_help_ru.qm',
   'C:\\Users\\Fallasin\\Documents\\QtProjects\\untitled2\\venv\\Lib\\site-packages\\PySide6\\translations\\qt_help_ru.qm',
   'DATA'),
  ('PySide6\\translations\\qt_help_fr.qm',
   'C:\\Users\\Fallasin\\Documents\\QtProjects\\untitled2\\venv\\Lib\\site-packages\\PySide6\\translations\\qt_help_fr.qm',
   'DATA'),
  ('PySide6\\translations\\qt_help_hu.qm',
   'C:\\Users\\Fallasin\\Documents\\QtProjects\\untitled2\\venv\\Lib\\site-packages\\PySide6\\translations\\qt_help_hu.qm',
   'DATA'),
  ('PySide6\\translations\\qt_help_de.qm',
   'C:\\Users\\Fallasin\\Documents\\QtProjects\\untitled2\\venv\\Lib\\site-packages\\PySide6\\translations\\qt_help_de.qm',
   'DATA'),
  ('PySide6\\translations\\qt_gd.qm',
   'C:\\Users\\Fallasin\\Documents\\QtProjects\\untitled2\\venv\\Lib\\site-packages\\PySide6\\translations\\qt_gd.qm',
   'DATA'),
  ('PySide6\\translations\\qt_zh_TW.qm',
   'C:\\Users\\Fallasin\\Documents\\QtProjects\\untitled2\\venv\\Lib\\site-packages\\PySide6\\translations\\qt_zh_TW.qm',
   'DATA'),
  ('PySide6\\translations\\qtbase_de.qm',
   'C:\\Users\\Fallasin\\Documents\\QtProjects\\untitled2\\venv\\Lib\\site-packages\\PySide6\\translations\\qtbase_de.qm',
   'DATA'),
  ('PySide6\\translations\\qt_help_en.qm',
   'C:\\Users\\Fallasin\\Documents\\QtProjects\\untitled2\\venv\\Lib\\site-packages\\PySide6\\translations\\qt_help_en.qm',
   'DATA'),
  ('PySide6\\translations\\qtbase_ar.qm',
   'C:\\Users\\Fallasin\\Documents\\QtProjects\\untitled2\\venv\\Lib\\site-packages\\PySide6\\translations\\qtbase_ar.qm',
   'DATA'),
  ('PySide6\\translations\\qtbase_nl.qm',
   'C:\\Users\\Fallasin\\Documents\\QtProjects\\untitled2\\venv\\Lib\\site-packages\\PySide6\\translations\\qtbase_nl.qm',
   'DATA'),
  ('PySide6\\translations\\qt_ko.qm',
   'C:\\Users\\Fallasin\\Documents\\QtProjects\\untitled2\\venv\\Lib\\site-packages\\PySide6\\translations\\qt_ko.qm',
   'DATA'),
  ('PySide6\\translations\\qt_tr.qm',
   'C:\\Users\\Fallasin\\Documents\\QtProjects\\untitled2\\venv\\Lib\\site-packages\\PySide6\\translations\\qt_tr.qm',
   'DATA'),
  ('PySide6\\translations\\qt_help_pt_BR.qm',
   'C:\\Users\\Fallasin\\Documents\\QtProjects\\untitled2\\venv\\Lib\\site-packages\\PySide6\\translations\\qt_help_pt_BR.qm',
   'DATA'),
  ('PySide6\\translations\\qt_help_uk.qm',
   'C:\\Users\\Fallasin\\Documents\\QtProjects\\untitled2\\venv\\Lib\\site-packages\\PySide6\\translations\\qt_help_uk.qm',
   'DATA'),
  ('PySide6\\translations\\qt_da.qm',
   'C:\\Users\\Fallasin\\Documents\\QtProjects\\untitled2\\venv\\Lib\\site-packages\\PySide6\\translations\\qt_da.qm',
   'DATA'),
  ('PySide6\\translations\\qtbase_ca.qm',
   'C:\\Users\\Fallasin\\Documents\\QtProjects\\untitled2\\venv\\Lib\\site-packages\\PySide6\\translations\\qtbase_ca.qm',
   'DATA'),
  ('PySide6\\translations\\qtbase_sk.qm',
   'C:\\Users\\Fallasin\\Documents\\QtProjects\\untitled2\\venv\\Lib\\site-packages\\PySide6\\translations\\qtbase_sk.qm',
   'DATA'),
  ('PySide6\\translations\\qtbase_fa.qm',
   'C:\\Users\\Fallasin\\Documents\\QtProjects\\untitled2\\venv\\Lib\\site-packages\\PySide6\\translations\\qtbase_fa.qm',
   'DATA'),
  ('PySide6\\translations\\qt_help_sl.qm',
   'C:\\Users\\Fallasin\\Documents\\QtProjects\\untitled2\\venv\\Lib\\site-packages\\PySide6\\translations\\qt_help_sl.qm',
   'DATA'),
  ('PySide6\\translations\\qt_help_ca.qm',
   'C:\\Users\\Fallasin\\Documents\\QtProjects\\untitled2\\venv\\Lib\\site-packages\\PySide6\\translations\\qt_help_ca.qm',
   'DATA'),
  ('PySide6\\translations\\qt_sv.qm',
   'C:\\Users\\Fallasin\\Documents\\QtProjects\\untitled2\\venv\\Lib\\site-packages\\PySide6\\translations\\qt_sv.qm',
   'DATA'),
  ('PySide6\\translations\\qt_help_ko.qm',
   'C:\\Users\\Fallasin\\Documents\\QtProjects\\untitled2\\venv\\Lib\\site-packages\\PySide6\\translations\\qt_help_ko.qm',
   'DATA'),
  ('PySide6\\translations\\qt_hr.qm',
   'C:\\Users\\Fallasin\\Documents\\QtProjects\\untitled2\\venv\\Lib\\site-packages\\PySide6\\translations\\qt_hr.qm',
   'DATA'),
  ('PySide6\\translations\\qt_es.qm',
   'C:\\Users\\Fallasin\\Documents\\QtProjects\\untitled2\\venv\\Lib\\site-packages\\PySide6\\translations\\qt_es.qm',
   'DATA'),
  ('PySide6\\translations\\qtbase_ko.qm',
   'C:\\Users\\Fallasin\\Documents\\QtProjects\\untitled2\\venv\\Lib\\site-packages\\PySide6\\translations\\qtbase_ko.qm',
   'DATA'),
  ('PySide6\\translations\\qtbase_en.qm',
   'C:\\Users\\Fallasin\\Documents\\QtProjects\\untitled2\\venv\\Lib\\site-packages\\PySide6\\translations\\qtbase_en.qm',
   'DATA'),
  ('PySide6\\translations\\qt_cs.qm',
   'C:\\Users\\Fallasin\\Documents\\QtProjects\\untitled2\\venv\\Lib\\site-packages\\PySide6\\translations\\qt_cs.qm',
   'DATA'),
  ('PySide6\\translations\\qt_help_sk.qm',
   'C:\\Users\\Fallasin\\Documents\\QtProjects\\untitled2\\venv\\Lib\\site-packages\\PySide6\\translations\\qt_help_sk.qm',
   'DATA'),
  ('PySide6\\translations\\qt_help_da.qm',
   'C:\\Users\\Fallasin\\Documents\\QtProjects\\untitled2\\venv\\Lib\\site-packages\\PySide6\\translations\\qt_help_da.qm',
   'DATA'),
  ('PySide6\\translations\\qt_help_nl.qm',
   'C:\\Users\\Fallasin\\Documents\\QtProjects\\untitled2\\venv\\Lib\\site-packages\\PySide6\\translations\\qt_help_nl.qm',
   'DATA'),
  ('PySide6\\translations\\qtbase_hr.qm',
   'C:\\Users\\Fallasin\\Documents\\QtProjects\\untitled2\\venv\\Lib\\site-packages\\PySide6\\translations\\qtbase_hr.qm',
   'DATA'),
  ('PySide6\\translations\\qtbase_pt_BR.qm',
   'C:\\Users\\Fallasin\\Documents\\QtProjects\\untitled2\\venv\\Lib\\site-packages\\PySide6\\translations\\qtbase_pt_BR.qm',
   'DATA'),
  ('PySide6\\translations\\qtbase_fi.qm',
   'C:\\Users\\Fallasin\\Documents\\QtProjects\\untitled2\\venv\\Lib\\site-packages\\PySide6\\translations\\qtbase_fi.qm',
   'DATA'),
  ('PySide6\\translations\\qtbase_da.qm',
   'C:\\Users\\Fallasin\\Documents\\QtProjects\\untitled2\\venv\\Lib\\site-packages\\PySide6\\translations\\qtbase_da.qm',
   'DATA'),
  ('PySide6\\translations\\qt_lv.qm',
   'C:\\Users\\Fallasin\\Documents\\QtProjects\\untitled2\\venv\\Lib\\site-packages\\PySide6\\translations\\qt_lv.qm',
   'DATA'),
  ('PySide6\\translations\\qt_lt.qm',
   'C:\\Users\\Fallasin\\Documents\\QtProjects\\untitled2\\venv\\Lib\\site-packages\\PySide6\\translations\\qt_lt.qm',
   'DATA'),
  ('PySide6\\translations\\qt_help_it.qm',
   'C:\\Users\\Fallasin\\Documents\\QtProjects\\untitled2\\venv\\Lib\\site-packages\\PySide6\\translations\\qt_help_it.qm',
   'DATA'),
  ('PySide6\\translations\\qt_help_pl.qm',
   'C:\\Users\\Fallasin\\Documents\\QtProjects\\untitled2\\venv\\Lib\\site-packages\\PySide6\\translations\\qt_help_pl.qm',
   'DATA'),
  ('PySide6\\translations\\qt_help_zh_TW.qm',
   'C:\\Users\\Fallasin\\Documents\\QtProjects\\untitled2\\venv\\Lib\\site-packages\\PySide6\\translations\\qt_help_zh_TW.qm',
   'DATA'),
  ('PySide6\\translations\\qtbase_es.qm',
   'C:\\Users\\Fallasin\\Documents\\QtProjects\\untitled2\\venv\\Lib\\site-packages\\PySide6\\translations\\qtbase_es.qm',
   'DATA'),
  ('PySide6\\translations\\qtbase_fr.qm',
   'C:\\Users\\Fallasin\\Documents\\QtProjects\\untitled2\\venv\\Lib\\site-packages\\PySide6\\translations\\qtbase_fr.qm',
   'DATA'),
  ('PySide6\\translations\\qt_it.qm',
   'C:\\Users\\Fallasin\\Documents\\QtProjects\\untitled2\\venv\\Lib\\site-packages\\PySide6\\translations\\qt_it.qm',
   'DATA'),
  ('PySide6\\translations\\qtbase_pl.qm',
   'C:\\Users\\Fallasin\\Documents\\QtProjects\\untitled2\\venv\\Lib\\site-packages\\PySide6\\translations\\qtbase_pl.qm',
   'DATA'),
  ('PySide6\\translations\\qt_fa.qm',
   'C:\\Users\\Fallasin\\Documents\\QtProjects\\untitled2\\venv\\Lib\\site-packages\\PySide6\\translations\\qt_fa.qm',
   'DATA'),
  ('PySide6\\translations\\qtbase_gd.qm',
   'C:\\Users\\Fallasin\\Documents\\QtProjects\\untitled2\\venv\\Lib\\site-packages\\PySide6\\translations\\qtbase_gd.qm',
   'DATA'),
  ('PySide6\\translations\\qt_nl.qm',
   'C:\\Users\\Fallasin\\Documents\\QtProjects\\untitled2\\venv\\Lib\\site-packages\\PySide6\\translations\\qt_nl.qm',
   'DATA'),
  ('PySide6\\translations\\qt_pt_PT.qm',
   'C:\\Users\\Fallasin\\Documents\\QtProjects\\untitled2\\venv\\Lib\\site-packages\\PySide6\\translations\\qt_pt_PT.qm',
   'DATA'),
  ('PySide6\\translations\\qt_help_nn.qm',
   'C:\\Users\\Fallasin\\Documents\\QtProjects\\untitled2\\venv\\Lib\\site-packages\\PySide6\\translations\\qt_help_nn.qm',
   'DATA')],)
