('C:\\Users\\Fallasin\\Documents\\QtProjects\\untitled2\\build\\widget\\widget.pkg',
 {'BINARY': True,
  'DATA': True,
  'EXECUTABLE': True,
  'EXTENSION': True,
  'PYMODULE': True,
  'PYSOURCE': True,
  'PYZ': False,
  'SPLASH': True,
  'SYMLINK': False},
 [('pyi-contents-directory _internal', '', 'OPTION'),
  ('PYZ-00.pyz',
   'C:\\Users\\Fallasin\\Documents\\QtProjects\\untitled2\\build\\widget\\PYZ-00.pyz',
   'PYZ'),
  ('struct',
   'C:\\Users\\Fallasin\\Documents\\QtProjects\\untitled2\\build\\widget\\localpycs\\struct.pyc',
   'PYMODULE'),
  ('pyimod01_archive',
   'C:\\Users\\Fallasin\\Documents\\QtProjects\\untitled2\\build\\widget\\localpycs\\pyimod01_archive.pyc',
   'PYMODULE'),
  ('pyimod02_importers',
   'C:\\Users\\Fallasin\\Documents\\QtProjects\\untitled2\\build\\widget\\localpycs\\pyimod02_importers.pyc',
   'PYMODULE'),
  ('pyimod03_ctypes',
   'C:\\Users\\Fallasin\\Documents\\QtProjects\\untitled2\\build\\widget\\localpycs\\pyimod03_ctypes.pyc',
   'PYMODULE'),
  ('pyimod04_pywin32',
   'C:\\Users\\Fallasin\\Documents\\QtProjects\\untitled2\\build\\widget\\localpycs\\pyimod04_pywin32.pyc',
   'PYMODULE'),
  ('pyiboot01_bootstrap',
   'C:\\Users\\Fallasin\\Documents\\QtProjects\\untitled2\\venv\\Lib\\site-packages\\PyInstaller\\loader\\pyiboot01_bootstrap.py',
   'PYSOURCE'),
  ('pyi_rth_inspect',
   'C:\\Users\\Fallasin\\Documents\\QtProjects\\untitled2\\venv\\Lib\\site-packages\\PyInstaller\\hooks\\rthooks\\pyi_rth_inspect.py',
   'PYSOURCE'),
  ('pyi_rth_pyside6',
   'C:\\Users\\Fallasin\\Documents\\QtProjects\\untitled2\\venv\\Lib\\site-packages\\PyInstaller\\hooks\\rthooks\\pyi_rth_pyside6.py',
   'PYSOURCE'),
  ('widget',
   'C:\\Users\\Fallasin\\Documents\\QtProjects\\untitled2\\widget.py',
   'PYSOURCE')],
 'python311.dll',
 True,
 False,
 False,
 [],
 None,
 None,
 None)
