(['C:\\Users\\Fallasin\\Documents\\QtProjects\\WindowsInstallationWizard\\InstallationWizardGui\\windows-executables\\exeLinkToBuildScript.py'],
 ['C:\\Users\\Fallasin\\Documents\\QtProjects\\WindowsInstallationWizard\\InstallationWizardGui\\windows-executables'],
 [],
 ['C:\\Users\\Fallasin\\Documents\\QtProjects\\untitled2\\venv\\Lib\\site-packages\\_pyinstaller_hooks_contrib\\hooks\\stdhooks',
  'C:\\Users\\Fallasin\\Documents\\QtProjects\\untitled2\\venv\\Lib\\site-packages\\_pyinstaller_hooks_contrib\\hooks'],
 {},
 [],
 [],
 False,
 {},
 [],
 [],
 '3.11.8 (tags/v3.11.8:db85d51, Feb  6 2024, 22:03:32) [MSC v.1937 64 bit '
 '(AMD64)]',
 [('pyi_rth_inspect',
   'C:\\Users\\Fallasin\\Documents\\QtProjects\\untitled2\\venv\\Lib\\site-packages\\PyInstaller\\hooks\\rthooks\\pyi_rth_inspect.py',
   'PYSOURCE'),
  ('exeLinkToBuildScript',
   'C:\\Users\\Fallasin\\Documents\\QtProjects\\WindowsInstallationWizard\\InstallationWizardGui\\windows-executables\\exeLinkToBuildScript.py',
   'PYSOURCE')],
 [('inspect', 'C:\\Python311\\Lib\\inspect.py', 'PYMODULE'),
  ('importlib', 'C:\\Python311\\Lib\\importlib\\__init__.py', 'PYMODULE'),
  ('importlib._bootstrap_external',
   'C:\\Python311\\Lib\\importlib\\_bootstrap_external.py',
   'PYMODULE'),
  ('importlib.metadata',
   'C:\\Python311\\Lib\\importlib\\metadata\\__init__.py',
   'PYMODULE'),
  ('typing', 'C:\\Python311\\Lib\\typing.py', 'PYMODULE'),
  ('importlib.abc', 'C:\\Python311\\Lib\\importlib\\abc.py', 'PYMODULE'),
  ('importlib.resources.abc',
   'C:\\Python311\\Lib\\importlib\\resources\\abc.py',
   'PYMODULE'),
  ('importlib.resources',
   'C:\\Python311\\Lib\\importlib\\resources\\__init__.py',
   'PYMODULE'),
  ('importlib.resources._legacy',
   'C:\\Python311\\Lib\\importlib\\resources\\_legacy.py',
   'PYMODULE'),
  ('importlib.resources._common',
   'C:\\Python311\\Lib\\importlib\\resources\\_common.py',
   'PYMODULE'),
  ('importlib.resources._adapters',
   'C:\\Python311\\Lib\\importlib\\resources\\_adapters.py',
   'PYMODULE'),
  ('tempfile', 'C:\\Python311\\Lib\\tempfile.py', 'PYMODULE'),
  ('random', 'C:\\Python311\\Lib\\random.py', 'PYMODULE'),
  ('_strptime', 'C:\\Python311\\Lib\\_strptime.py', 'PYMODULE'),
  ('datetime', 'C:\\Python311\\Lib\\datetime.py', 'PYMODULE'),
  ('calendar', 'C:\\Python311\\Lib\\calendar.py', 'PYMODULE'),
  ('statistics', 'C:\\Python311\\Lib\\statistics.py', 'PYMODULE'),
  ('decimal', 'C:\\Python311\\Lib\\decimal.py', 'PYMODULE'),
  ('_pydecimal', 'C:\\Python311\\Lib\\_pydecimal.py', 'PYMODULE'),
  ('contextvars', 'C:\\Python311\\Lib\\contextvars.py', 'PYMODULE'),
  ('fractions', 'C:\\Python311\\Lib\\fractions.py', 'PYMODULE'),
  ('numbers', 'C:\\Python311\\Lib\\numbers.py', 'PYMODULE'),
  ('hashlib', 'C:\\Python311\\Lib\\hashlib.py', 'PYMODULE'),
  ('logging', 'C:\\Python311\\Lib\\logging\\__init__.py', 'PYMODULE'),
  ('pickle', 'C:\\Python311\\Lib\\pickle.py', 'PYMODULE'),
  ('pprint', 'C:\\Python311\\Lib\\pprint.py', 'PYMODULE'),
  ('dataclasses', 'C:\\Python311\\Lib\\dataclasses.py', 'PYMODULE'),
  ('copy', 'C:\\Python311\\Lib\\copy.py', 'PYMODULE'),
  ('_compat_pickle', 'C:\\Python311\\Lib\\_compat_pickle.py', 'PYMODULE'),
  ('struct', 'C:\\Python311\\Lib\\struct.py', 'PYMODULE'),
  ('threading', 'C:\\Python311\\Lib\\threading.py', 'PYMODULE'),
  ('_threading_local', 'C:\\Python311\\Lib\\_threading_local.py', 'PYMODULE'),
  ('string', 'C:\\Python311\\Lib\\string.py', 'PYMODULE'),
  ('bisect', 'C:\\Python311\\Lib\\bisect.py', 'PYMODULE'),
  ('shutil', 'C:\\Python311\\Lib\\shutil.py', 'PYMODULE'),
  ('tarfile', 'C:\\Python311\\Lib\\tarfile.py', 'PYMODULE'),
  ('gzip', 'C:\\Python311\\Lib\\gzip.py', 'PYMODULE'),
  ('_compression', 'C:\\Python311\\Lib\\_compression.py', 'PYMODULE'),
  ('lzma', 'C:\\Python311\\Lib\\lzma.py', 'PYMODULE'),
  ('bz2', 'C:\\Python311\\Lib\\bz2.py', 'PYMODULE'),
  ('fnmatch', 'C:\\Python311\\Lib\\fnmatch.py', 'PYMODULE'),
  ('importlib._abc', 'C:\\Python311\\Lib\\importlib\\_abc.py', 'PYMODULE'),
  ('contextlib', 'C:\\Python311\\Lib\\contextlib.py', 'PYMODULE'),
  ('importlib.metadata._itertools',
   'C:\\Python311\\Lib\\importlib\\metadata\\_itertools.py',
   'PYMODULE'),
  ('importlib.metadata._functools',
   'C:\\Python311\\Lib\\importlib\\metadata\\_functools.py',
   'PYMODULE'),
  ('importlib.metadata._collections',
   'C:\\Python311\\Lib\\importlib\\metadata\\_collections.py',
   'PYMODULE'),
  ('importlib.metadata._meta',
   'C:\\Python311\\Lib\\importlib\\metadata\\_meta.py',
   'PYMODULE'),
  ('importlib.metadata._adapters',
   'C:\\Python311\\Lib\\importlib\\metadata\\_adapters.py',
   'PYMODULE'),
  ('importlib.metadata._text',
   'C:\\Python311\\Lib\\importlib\\metadata\\_text.py',
   'PYMODULE'),
  ('email.message', 'C:\\Python311\\Lib\\email\\message.py', 'PYMODULE'),
  ('email.policy', 'C:\\Python311\\Lib\\email\\policy.py', 'PYMODULE'),
  ('email.contentmanager',
   'C:\\Python311\\Lib\\email\\contentmanager.py',
   'PYMODULE'),
  ('email.quoprimime', 'C:\\Python311\\Lib\\email\\quoprimime.py', 'PYMODULE'),
  ('email.headerregistry',
   'C:\\Python311\\Lib\\email\\headerregistry.py',
   'PYMODULE'),
  ('email._header_value_parser',
   'C:\\Python311\\Lib\\email\\_header_value_parser.py',
   'PYMODULE'),
  ('urllib', 'C:\\Python311\\Lib\\urllib\\__init__.py', 'PYMODULE'),
  ('email.iterators', 'C:\\Python311\\Lib\\email\\iterators.py', 'PYMODULE'),
  ('email.generator', 'C:\\Python311\\Lib\\email\\generator.py', 'PYMODULE'),
  ('email._encoded_words',
   'C:\\Python311\\Lib\\email\\_encoded_words.py',
   'PYMODULE'),
  ('base64', 'C:\\Python311\\Lib\\base64.py', 'PYMODULE'),
  ('getopt', 'C:\\Python311\\Lib\\getopt.py', 'PYMODULE'),
  ('gettext', 'C:\\Python311\\Lib\\gettext.py', 'PYMODULE'),
  ('email.charset', 'C:\\Python311\\Lib\\email\\charset.py', 'PYMODULE'),
  ('email.encoders', 'C:\\Python311\\Lib\\email\\encoders.py', 'PYMODULE'),
  ('email.base64mime', 'C:\\Python311\\Lib\\email\\base64mime.py', 'PYMODULE'),
  ('email._policybase',
   'C:\\Python311\\Lib\\email\\_policybase.py',
   'PYMODULE'),
  ('email.header', 'C:\\Python311\\Lib\\email\\header.py', 'PYMODULE'),
  ('email.errors', 'C:\\Python311\\Lib\\email\\errors.py', 'PYMODULE'),
  ('email.utils', 'C:\\Python311\\Lib\\email\\utils.py', 'PYMODULE'),
  ('email._parseaddr', 'C:\\Python311\\Lib\\email\\_parseaddr.py', 'PYMODULE'),
  ('urllib.parse', 'C:\\Python311\\Lib\\urllib\\parse.py', 'PYMODULE'),
  ('ipaddress', 'C:\\Python311\\Lib\\ipaddress.py', 'PYMODULE'),
  ('socket', 'C:\\Python311\\Lib\\socket.py', 'PYMODULE'),
  ('selectors', 'C:\\Python311\\Lib\\selectors.py', 'PYMODULE'),
  ('quopri', 'C:\\Python311\\Lib\\quopri.py', 'PYMODULE'),
  ('textwrap', 'C:\\Python311\\Lib\\textwrap.py', 'PYMODULE'),
  ('zipfile', 'C:\\Python311\\Lib\\zipfile.py', 'PYMODULE'),
  ('py_compile', 'C:\\Python311\\Lib\\py_compile.py', 'PYMODULE'),
  ('importlib.util', 'C:\\Python311\\Lib\\importlib\\util.py', 'PYMODULE'),
  ('pathlib', 'C:\\Python311\\Lib\\pathlib.py', 'PYMODULE'),
  ('email', 'C:\\Python311\\Lib\\email\\__init__.py', 'PYMODULE'),
  ('email.parser', 'C:\\Python311\\Lib\\email\\parser.py', 'PYMODULE'),
  ('email.feedparser', 'C:\\Python311\\Lib\\email\\feedparser.py', 'PYMODULE'),
  ('csv', 'C:\\Python311\\Lib\\csv.py', 'PYMODULE'),
  ('importlib.readers',
   'C:\\Python311\\Lib\\importlib\\readers.py',
   'PYMODULE'),
  ('importlib.resources.readers',
   'C:\\Python311\\Lib\\importlib\\resources\\readers.py',
   'PYMODULE'),
  ('importlib.resources._itertools',
   'C:\\Python311\\Lib\\importlib\\resources\\_itertools.py',
   'PYMODULE'),
  ('importlib._bootstrap',
   'C:\\Python311\\Lib\\importlib\\_bootstrap.py',
   'PYMODULE'),
  ('argparse', 'C:\\Python311\\Lib\\argparse.py', 'PYMODULE'),
  ('token', 'C:\\Python311\\Lib\\token.py', 'PYMODULE'),
  ('tokenize', 'C:\\Python311\\Lib\\tokenize.py', 'PYMODULE'),
  ('importlib.machinery',
   'C:\\Python311\\Lib\\importlib\\machinery.py',
   'PYMODULE'),
  ('dis', 'C:\\Python311\\Lib\\dis.py', 'PYMODULE'),
  ('opcode', 'C:\\Python311\\Lib\\opcode.py', 'PYMODULE'),
  ('ast', 'C:\\Python311\\Lib\\ast.py', 'PYMODULE'),
  ('stringprep', 'C:\\Python311\\Lib\\stringprep.py', 'PYMODULE'),
  ('_py_abc', 'C:\\Python311\\Lib\\_py_abc.py', 'PYMODULE'),
  ('tracemalloc', 'C:\\Python311\\Lib\\tracemalloc.py', 'PYMODULE'),
  ('subprocess', 'C:\\Python311\\Lib\\subprocess.py', 'PYMODULE'),
  ('signal', 'C:\\Python311\\Lib\\signal.py', 'PYMODULE')],
 [('python311.dll', 'C:\\Python311\\python311.dll', 'BINARY'),
  ('_decimal.pyd', 'C:\\Python311\\DLLs\\_decimal.pyd', 'EXTENSION'),
  ('_hashlib.pyd', 'C:\\Python311\\DLLs\\_hashlib.pyd', 'EXTENSION'),
  ('_lzma.pyd', 'C:\\Python311\\DLLs\\_lzma.pyd', 'EXTENSION'),
  ('_bz2.pyd', 'C:\\Python311\\DLLs\\_bz2.pyd', 'EXTENSION'),
  ('unicodedata.pyd', 'C:\\Python311\\DLLs\\unicodedata.pyd', 'EXTENSION'),
  ('select.pyd', 'C:\\Python311\\DLLs\\select.pyd', 'EXTENSION'),
  ('_socket.pyd', 'C:\\Python311\\DLLs\\_socket.pyd', 'EXTENSION'),
  ('api-ms-win-crt-runtime-l1-1-0.dll',
   'C:\\Program '
   'Files\\Java\\graalvm-jdk-21\\bin\\api-ms-win-crt-runtime-l1-1-0.dll',
   'BINARY'),
  ('api-ms-win-crt-process-l1-1-0.dll',
   'C:\\Program '
   'Files\\Java\\graalvm-jdk-21\\bin\\api-ms-win-crt-process-l1-1-0.dll',
   'BINARY'),
  ('api-ms-win-crt-convert-l1-1-0.dll',
   'C:\\Program '
   'Files\\Java\\graalvm-jdk-21\\bin\\api-ms-win-crt-convert-l1-1-0.dll',
   'BINARY'),
  ('api-ms-win-crt-environment-l1-1-0.dll',
   'C:\\Program '
   'Files\\Java\\graalvm-jdk-21\\bin\\api-ms-win-crt-environment-l1-1-0.dll',
   'BINARY'),
  ('api-ms-win-crt-math-l1-1-0.dll',
   'C:\\Program '
   'Files\\Java\\graalvm-jdk-21\\bin\\api-ms-win-crt-math-l1-1-0.dll',
   'BINARY'),
  ('VCRUNTIME140.dll', 'C:\\Python311\\VCRUNTIME140.dll', 'BINARY'),
  ('api-ms-win-crt-stdio-l1-1-0.dll',
   'C:\\Program '
   'Files\\Java\\graalvm-jdk-21\\bin\\api-ms-win-crt-stdio-l1-1-0.dll',
   'BINARY'),
  ('api-ms-win-crt-heap-l1-1-0.dll',
   'C:\\Program '
   'Files\\Java\\graalvm-jdk-21\\bin\\api-ms-win-crt-heap-l1-1-0.dll',
   'BINARY'),
  ('api-ms-win-crt-filesystem-l1-1-0.dll',
   'C:\\Program '
   'Files\\Java\\graalvm-jdk-21\\bin\\api-ms-win-crt-filesystem-l1-1-0.dll',
   'BINARY'),
  ('api-ms-win-crt-time-l1-1-0.dll',
   'C:\\Program '
   'Files\\Java\\graalvm-jdk-21\\bin\\api-ms-win-crt-time-l1-1-0.dll',
   'BINARY'),
  ('api-ms-win-crt-string-l1-1-0.dll',
   'C:\\Program '
   'Files\\Java\\graalvm-jdk-21\\bin\\api-ms-win-crt-string-l1-1-0.dll',
   'BINARY'),
  ('api-ms-win-crt-locale-l1-1-0.dll',
   'C:\\Program '
   'Files\\Java\\graalvm-jdk-21\\bin\\api-ms-win-crt-locale-l1-1-0.dll',
   'BINARY'),
  ('api-ms-win-crt-conio-l1-1-0.dll',
   'C:\\Program '
   'Files\\Java\\graalvm-jdk-21\\bin\\api-ms-win-crt-conio-l1-1-0.dll',
   'BINARY'),
  ('libcrypto-3.dll', 'C:\\Python311\\DLLs\\libcrypto-3.dll', 'BINARY'),
  ('ucrtbase.dll',
   'C:\\Program Files\\Java\\graalvm-jdk-21\\bin\\ucrtbase.dll',
   'BINARY'),
  ('api-ms-win-crt-utility-l1-1-0.dll',
   'C:\\Program '
   'Files\\Java\\graalvm-jdk-21\\bin\\api-ms-win-crt-utility-l1-1-0.dll',
   'BINARY'),
  ('api-ms-win-core-debug-l1-1-0.dll',
   'C:\\Program '
   'Files\\Java\\graalvm-jdk-21\\bin\\api-ms-win-core-debug-l1-1-0.dll',
   'BINARY'),
  ('api-ms-win-core-heap-l1-1-0.dll',
   'C:\\Program '
   'Files\\Java\\graalvm-jdk-21\\bin\\api-ms-win-core-heap-l1-1-0.dll',
   'BINARY'),
  ('api-ms-win-core-synch-l1-1-0.dll',
   'C:\\Program '
   'Files\\Java\\graalvm-jdk-21\\bin\\api-ms-win-core-synch-l1-1-0.dll',
   'BINARY'),
  ('api-ms-win-core-localization-l1-2-0.dll',
   'C:\\Program '
   'Files\\Java\\graalvm-jdk-21\\bin\\api-ms-win-core-localization-l1-2-0.dll',
   'BINARY'),
  ('api-ms-win-core-datetime-l1-1-0.dll',
   'C:\\Program '
   'Files\\Java\\graalvm-jdk-21\\bin\\api-ms-win-core-datetime-l1-1-0.dll',
   'BINARY'),
  ('api-ms-win-core-synch-l1-2-0.dll',
   'C:\\Program '
   'Files\\Java\\graalvm-jdk-21\\bin\\api-ms-win-core-synch-l1-2-0.dll',
   'BINARY'),
  ('api-ms-win-core-processenvironment-l1-1-0.dll',
   'C:\\Program '
   'Files\\Java\\graalvm-jdk-21\\bin\\api-ms-win-core-processenvironment-l1-1-0.dll',
   'BINARY'),
  ('api-ms-win-core-processthreads-l1-1-1.dll',
   'C:\\Program '
   'Files\\Java\\graalvm-jdk-21\\bin\\api-ms-win-core-processthreads-l1-1-1.dll',
   'BINARY'),
  ('api-ms-win-core-timezone-l1-1-0.dll',
   'C:\\Program '
   'Files\\Java\\graalvm-jdk-21\\bin\\api-ms-win-core-timezone-l1-1-0.dll',
   'BINARY'),
  ('api-ms-win-core-rtlsupport-l1-1-0.dll',
   'C:\\Program '
   'Files\\Java\\graalvm-jdk-21\\bin\\api-ms-win-core-rtlsupport-l1-1-0.dll',
   'BINARY'),
  ('api-ms-win-core-libraryloader-l1-1-0.dll',
   'C:\\Program '
   'Files\\Java\\graalvm-jdk-21\\bin\\api-ms-win-core-libraryloader-l1-1-0.dll',
   'BINARY'),
  ('api-ms-win-core-file-l1-2-0.dll',
   'C:\\Program '
   'Files\\Java\\graalvm-jdk-21\\bin\\api-ms-win-core-file-l1-2-0.dll',
   'BINARY'),
  ('api-ms-win-core-memory-l1-1-0.dll',
   'C:\\Program '
   'Files\\Java\\graalvm-jdk-21\\bin\\api-ms-win-core-memory-l1-1-0.dll',
   'BINARY'),
  ('api-ms-win-core-util-l1-1-0.dll',
   'C:\\Program '
   'Files\\Java\\graalvm-jdk-21\\bin\\api-ms-win-core-util-l1-1-0.dll',
   'BINARY'),
  ('api-ms-win-core-console-l1-1-0.dll',
   'C:\\Program '
   'Files\\Java\\graalvm-jdk-21\\bin\\api-ms-win-core-console-l1-1-0.dll',
   'BINARY'),
  ('api-ms-win-core-file-l1-1-0.dll',
   'C:\\Program '
   'Files\\Java\\graalvm-jdk-21\\bin\\api-ms-win-core-file-l1-1-0.dll',
   'BINARY'),
  ('api-ms-win-core-processthreads-l1-1-0.dll',
   'C:\\Program '
   'Files\\Java\\graalvm-jdk-21\\bin\\api-ms-win-core-processthreads-l1-1-0.dll',
   'BINARY'),
  ('api-ms-win-core-handle-l1-1-0.dll',
   'C:\\Program '
   'Files\\Java\\graalvm-jdk-21\\bin\\api-ms-win-core-handle-l1-1-0.dll',
   'BINARY'),
  ('api-ms-win-core-namedpipe-l1-1-0.dll',
   'C:\\Program '
   'Files\\Java\\graalvm-jdk-21\\bin\\api-ms-win-core-namedpipe-l1-1-0.dll',
   'BINARY'),
  ('api-ms-win-core-profile-l1-1-0.dll',
   'C:\\Program '
   'Files\\Java\\graalvm-jdk-21\\bin\\api-ms-win-core-profile-l1-1-0.dll',
   'BINARY'),
  ('api-ms-win-core-errorhandling-l1-1-0.dll',
   'C:\\Program '
   'Files\\Java\\graalvm-jdk-21\\bin\\api-ms-win-core-errorhandling-l1-1-0.dll',
   'BINARY'),
  ('api-ms-win-core-file-l2-1-0.dll',
   'C:\\Program '
   'Files\\Java\\graalvm-jdk-21\\bin\\api-ms-win-core-file-l2-1-0.dll',
   'BINARY'),
  ('api-ms-win-core-sysinfo-l1-1-0.dll',
   'C:\\Program '
   'Files\\Java\\graalvm-jdk-21\\bin\\api-ms-win-core-sysinfo-l1-1-0.dll',
   'BINARY'),
  ('api-ms-win-core-string-l1-1-0.dll',
   'C:\\Program '
   'Files\\Java\\graalvm-jdk-21\\bin\\api-ms-win-core-string-l1-1-0.dll',
   'BINARY'),
  ('api-ms-win-core-interlocked-l1-1-0.dll',
   'C:\\Program '
   'Files\\Java\\graalvm-jdk-21\\bin\\api-ms-win-core-interlocked-l1-1-0.dll',
   'BINARY')],
 [],
 [],
 [('base_library.zip',
   'C:\\Users\\Fallasin\\Documents\\QtProjects\\WindowsInstallationWizard\\InstallationWizardGui\\windows-executables\\build\\exeLinkToBuildScript\\base_library.zip',
   'DATA')])
