(['C:\\Users\\Fallasin\\Documents\\QtProjects\\WindowsInstallationWizard\\InstallationWizardGui\\main.py'],
 ['C:\\Users\\Fallasin\\Documents\\QtProjects\\WindowsInstallationWizard\\InstallationWizardGui'],
 [],
 ['C:\\Users\\Fallasin\\Documents\\QtProjects\\untitled2\\venv\\Lib\\site-packages\\_pyinstaller_hooks_contrib\\hooks\\stdhooks',
  'C:\\Users\\Fallasin\\Documents\\QtProjects\\untitled2\\venv\\Lib\\site-packages\\_pyinstaller_hooks_contrib\\hooks'],
 {},
 [],
 [],
 False,
 {},
 [],
 [],
 '3.11.8 (tags/v3.11.8:db85d51, Feb  6 2024, 22:03:32) [MSC v.1937 64 bit '
 '(AMD64)]',
 [('pyi_rth_inspect',
   'C:\\Users\\Fallasin\\Documents\\QtProjects\\untitled2\\venv\\Lib\\site-packages\\PyInstaller\\hooks\\rthooks\\pyi_rth_inspect.py',
   'PYSOURCE'),
  ('pyi_rth_pyside6',
   'C:\\Users\\Fallasin\\Documents\\QtProjects\\untitled2\\venv\\Lib\\site-packages\\PyInstaller\\hooks\\rthooks\\pyi_rth_pyside6.py',
   'PYSOURCE'),
  ('pyi_rth_pkgres',
   'C:\\Users\\Fallasin\\Documents\\QtProjects\\untitled2\\venv\\Lib\\site-packages\\PyInstaller\\hooks\\rthooks\\pyi_rth_pkgres.py',
   'PYSOURCE'),
  ('pyi_rth_pkgutil',
   'C:\\Users\\Fallasin\\Documents\\QtProjects\\untitled2\\venv\\Lib\\site-packages\\PyInstaller\\hooks\\rthooks\\pyi_rth_pkgutil.py',
   'PYSOURCE'),
  ('main',
   'C:\\Users\\Fallasin\\Documents\\QtProjects\\WindowsInstallationWizard\\InstallationWizardGui\\main.py',
   'PYSOURCE')],
 [('_pyi_rth_utils',
   'C:\\Users\\Fallasin\\Documents\\QtProjects\\untitled2\\venv\\Lib\\site-packages\\PyInstaller\\fake-modules\\_pyi_rth_utils\\__init__.py',
   'PYMODULE'),
  ('pkgutil', 'C:\\Python311\\Lib\\pkgutil.py', 'PYMODULE'),
  ('zipimport', 'C:\\Python311\\Lib\\zipimport.py', 'PYMODULE'),
  ('importlib.readers',
   'C:\\Python311\\Lib\\importlib\\readers.py',
   'PYMODULE'),
  ('importlib.resources.readers',
   'C:\\Python311\\Lib\\importlib\\resources\\readers.py',
   'PYMODULE'),
  ('importlib.resources._itertools',
   'C:\\Python311\\Lib\\importlib\\resources\\_itertools.py',
   'PYMODULE'),
  ('typing', 'C:\\Python311\\Lib\\typing.py', 'PYMODULE'),
  ('contextlib', 'C:\\Python311\\Lib\\contextlib.py', 'PYMODULE'),
  ('importlib.resources.abc',
   'C:\\Python311\\Lib\\importlib\\resources\\abc.py',
   'PYMODULE'),
  ('importlib.resources',
   'C:\\Python311\\Lib\\importlib\\resources\\__init__.py',
   'PYMODULE'),
  ('importlib.resources._legacy',
   'C:\\Python311\\Lib\\importlib\\resources\\_legacy.py',
   'PYMODULE'),
  ('importlib.resources._common',
   'C:\\Python311\\Lib\\importlib\\resources\\_common.py',
   'PYMODULE'),
  ('importlib.resources._adapters',
   'C:\\Python311\\Lib\\importlib\\resources\\_adapters.py',
   'PYMODULE'),
  ('tempfile', 'C:\\Python311\\Lib\\tempfile.py', 'PYMODULE'),
  ('random', 'C:\\Python311\\Lib\\random.py', 'PYMODULE'),
  ('statistics', 'C:\\Python311\\Lib\\statistics.py', 'PYMODULE'),
  ('decimal', 'C:\\Python311\\Lib\\decimal.py', 'PYMODULE'),
  ('_pydecimal', 'C:\\Python311\\Lib\\_pydecimal.py', 'PYMODULE'),
  ('contextvars', 'C:\\Python311\\Lib\\contextvars.py', 'PYMODULE'),
  ('fractions', 'C:\\Python311\\Lib\\fractions.py', 'PYMODULE'),
  ('numbers', 'C:\\Python311\\Lib\\numbers.py', 'PYMODULE'),
  ('hashlib', 'C:\\Python311\\Lib\\hashlib.py', 'PYMODULE'),
  ('logging', 'C:\\Python311\\Lib\\logging\\__init__.py', 'PYMODULE'),
  ('pickle', 'C:\\Python311\\Lib\\pickle.py', 'PYMODULE'),
  ('pprint', 'C:\\Python311\\Lib\\pprint.py', 'PYMODULE'),
  ('dataclasses', 'C:\\Python311\\Lib\\dataclasses.py', 'PYMODULE'),
  ('copy', 'C:\\Python311\\Lib\\copy.py', 'PYMODULE'),
  ('_compat_pickle', 'C:\\Python311\\Lib\\_compat_pickle.py', 'PYMODULE'),
  ('struct', 'C:\\Python311\\Lib\\struct.py', 'PYMODULE'),
  ('threading', 'C:\\Python311\\Lib\\threading.py', 'PYMODULE'),
  ('_threading_local', 'C:\\Python311\\Lib\\_threading_local.py', 'PYMODULE'),
  ('string', 'C:\\Python311\\Lib\\string.py', 'PYMODULE'),
  ('bisect', 'C:\\Python311\\Lib\\bisect.py', 'PYMODULE'),
  ('shutil', 'C:\\Python311\\Lib\\shutil.py', 'PYMODULE'),
  ('tarfile', 'C:\\Python311\\Lib\\tarfile.py', 'PYMODULE'),
  ('argparse', 'C:\\Python311\\Lib\\argparse.py', 'PYMODULE'),
  ('textwrap', 'C:\\Python311\\Lib\\textwrap.py', 'PYMODULE'),
  ('gettext', 'C:\\Python311\\Lib\\gettext.py', 'PYMODULE'),
  ('gzip', 'C:\\Python311\\Lib\\gzip.py', 'PYMODULE'),
  ('_compression', 'C:\\Python311\\Lib\\_compression.py', 'PYMODULE'),
  ('lzma', 'C:\\Python311\\Lib\\lzma.py', 'PYMODULE'),
  ('bz2', 'C:\\Python311\\Lib\\bz2.py', 'PYMODULE'),
  ('fnmatch', 'C:\\Python311\\Lib\\fnmatch.py', 'PYMODULE'),
  ('zipfile', 'C:\\Python311\\Lib\\zipfile.py', 'PYMODULE'),
  ('py_compile', 'C:\\Python311\\Lib\\py_compile.py', 'PYMODULE'),
  ('importlib._bootstrap_external',
   'C:\\Python311\\Lib\\importlib\\_bootstrap_external.py',
   'PYMODULE'),
  ('importlib.metadata',
   'C:\\Python311\\Lib\\importlib\\metadata\\__init__.py',
   'PYMODULE'),
  ('importlib.abc', 'C:\\Python311\\Lib\\importlib\\abc.py', 'PYMODULE'),
  ('importlib._abc', 'C:\\Python311\\Lib\\importlib\\_abc.py', 'PYMODULE'),
  ('importlib._bootstrap',
   'C:\\Python311\\Lib\\importlib\\_bootstrap.py',
   'PYMODULE'),
  ('importlib.metadata._itertools',
   'C:\\Python311\\Lib\\importlib\\metadata\\_itertools.py',
   'PYMODULE'),
  ('importlib.metadata._functools',
   'C:\\Python311\\Lib\\importlib\\metadata\\_functools.py',
   'PYMODULE'),
  ('importlib.metadata._collections',
   'C:\\Python311\\Lib\\importlib\\metadata\\_collections.py',
   'PYMODULE'),
  ('importlib.metadata._meta',
   'C:\\Python311\\Lib\\importlib\\metadata\\_meta.py',
   'PYMODULE'),
  ('importlib.metadata._adapters',
   'C:\\Python311\\Lib\\importlib\\metadata\\_adapters.py',
   'PYMODULE'),
  ('importlib.metadata._text',
   'C:\\Python311\\Lib\\importlib\\metadata\\_text.py',
   'PYMODULE'),
  ('email.message', 'C:\\Python311\\Lib\\email\\message.py', 'PYMODULE'),
  ('email.policy', 'C:\\Python311\\Lib\\email\\policy.py', 'PYMODULE'),
  ('email.contentmanager',
   'C:\\Python311\\Lib\\email\\contentmanager.py',
   'PYMODULE'),
  ('email.quoprimime', 'C:\\Python311\\Lib\\email\\quoprimime.py', 'PYMODULE'),
  ('email.headerregistry',
   'C:\\Python311\\Lib\\email\\headerregistry.py',
   'PYMODULE'),
  ('email._header_value_parser',
   'C:\\Python311\\Lib\\email\\_header_value_parser.py',
   'PYMODULE'),
  ('urllib', 'C:\\Python311\\Lib\\urllib\\__init__.py', 'PYMODULE'),
  ('email.iterators', 'C:\\Python311\\Lib\\email\\iterators.py', 'PYMODULE'),
  ('email.generator', 'C:\\Python311\\Lib\\email\\generator.py', 'PYMODULE'),
  ('email._encoded_words',
   'C:\\Python311\\Lib\\email\\_encoded_words.py',
   'PYMODULE'),
  ('base64', 'C:\\Python311\\Lib\\base64.py', 'PYMODULE'),
  ('getopt', 'C:\\Python311\\Lib\\getopt.py', 'PYMODULE'),
  ('email.charset', 'C:\\Python311\\Lib\\email\\charset.py', 'PYMODULE'),
  ('email.encoders', 'C:\\Python311\\Lib\\email\\encoders.py', 'PYMODULE'),
  ('email.base64mime', 'C:\\Python311\\Lib\\email\\base64mime.py', 'PYMODULE'),
  ('email._policybase',
   'C:\\Python311\\Lib\\email\\_policybase.py',
   'PYMODULE'),
  ('email.header', 'C:\\Python311\\Lib\\email\\header.py', 'PYMODULE'),
  ('email.errors', 'C:\\Python311\\Lib\\email\\errors.py', 'PYMODULE'),
  ('email.utils', 'C:\\Python311\\Lib\\email\\utils.py', 'PYMODULE'),
  ('email._parseaddr', 'C:\\Python311\\Lib\\email\\_parseaddr.py', 'PYMODULE'),
  ('calendar', 'C:\\Python311\\Lib\\calendar.py', 'PYMODULE'),
  ('urllib.parse', 'C:\\Python311\\Lib\\urllib\\parse.py', 'PYMODULE'),
  ('ipaddress', 'C:\\Python311\\Lib\\ipaddress.py', 'PYMODULE'),
  ('datetime', 'C:\\Python311\\Lib\\datetime.py', 'PYMODULE'),
  ('_strptime', 'C:\\Python311\\Lib\\_strptime.py', 'PYMODULE'),
  ('socket', 'C:\\Python311\\Lib\\socket.py', 'PYMODULE'),
  ('selectors', 'C:\\Python311\\Lib\\selectors.py', 'PYMODULE'),
  ('quopri', 'C:\\Python311\\Lib\\quopri.py', 'PYMODULE'),
  ('email', 'C:\\Python311\\Lib\\email\\__init__.py', 'PYMODULE'),
  ('email.parser', 'C:\\Python311\\Lib\\email\\parser.py', 'PYMODULE'),
  ('email.feedparser', 'C:\\Python311\\Lib\\email\\feedparser.py', 'PYMODULE'),
  ('csv', 'C:\\Python311\\Lib\\csv.py', 'PYMODULE'),
  ('tokenize', 'C:\\Python311\\Lib\\tokenize.py', 'PYMODULE'),
  ('token', 'C:\\Python311\\Lib\\token.py', 'PYMODULE'),
  ('inspect', 'C:\\Python311\\Lib\\inspect.py', 'PYMODULE'),
  ('dis', 'C:\\Python311\\Lib\\dis.py', 'PYMODULE'),
  ('opcode', 'C:\\Python311\\Lib\\opcode.py', 'PYMODULE'),
  ('ast', 'C:\\Python311\\Lib\\ast.py', 'PYMODULE'),
  ('importlib.machinery',
   'C:\\Python311\\Lib\\importlib\\machinery.py',
   'PYMODULE'),
  ('importlib.util', 'C:\\Python311\\Lib\\importlib\\util.py', 'PYMODULE'),
  ('importlib', 'C:\\Python311\\Lib\\importlib\\__init__.py', 'PYMODULE'),
  ('pathlib', 'C:\\Python311\\Lib\\pathlib.py', 'PYMODULE'),
  ('pkg_resources',
   'C:\\Users\\Fallasin\\Documents\\QtProjects\\untitled2\\venv\\Lib\\site-packages\\pkg_resources\\__init__.py',
   'PYMODULE'),
  ('packaging.version',
   'C:\\Users\\Fallasin\\Documents\\QtProjects\\untitled2\\venv\\Lib\\site-packages\\packaging\\version.py',
   'PYMODULE'),
  ('packaging.utils',
   'C:\\Users\\Fallasin\\Documents\\QtProjects\\untitled2\\venv\\Lib\\site-packages\\packaging\\utils.py',
   'PYMODULE'),
  ('packaging.tags',
   'C:\\Users\\Fallasin\\Documents\\QtProjects\\untitled2\\venv\\Lib\\site-packages\\packaging\\tags.py',
   'PYMODULE'),
  ('packaging.specifiers',
   'C:\\Users\\Fallasin\\Documents\\QtProjects\\untitled2\\venv\\Lib\\site-packages\\packaging\\specifiers.py',
   'PYMODULE'),
  ('packaging.requirements',
   'C:\\Users\\Fallasin\\Documents\\QtProjects\\untitled2\\venv\\Lib\\site-packages\\packaging\\requirements.py',
   'PYMODULE'),
  ('packaging.metadata',
   'C:\\Users\\Fallasin\\Documents\\QtProjects\\untitled2\\venv\\Lib\\site-packages\\packaging\\metadata.py',
   'PYMODULE'),
  ('packaging.markers',
   'C:\\Users\\Fallasin\\Documents\\QtProjects\\untitled2\\venv\\Lib\\site-packages\\packaging\\markers.py',
   'PYMODULE'),
  ('packaging._tokenizer',
   'C:\\Users\\Fallasin\\Documents\\QtProjects\\untitled2\\venv\\Lib\\site-packages\\packaging\\_tokenizer.py',
   'PYMODULE'),
  ('packaging._structures',
   'C:\\Users\\Fallasin\\Documents\\QtProjects\\untitled2\\venv\\Lib\\site-packages\\packaging\\_structures.py',
   'PYMODULE'),
  ('packaging._parser',
   'C:\\Users\\Fallasin\\Documents\\QtProjects\\untitled2\\venv\\Lib\\site-packages\\packaging\\_parser.py',
   'PYMODULE'),
  ('packaging._musllinux',
   'C:\\Users\\Fallasin\\Documents\\QtProjects\\untitled2\\venv\\Lib\\site-packages\\packaging\\_musllinux.py',
   'PYMODULE'),
  ('packaging._manylinux',
   'C:\\Users\\Fallasin\\Documents\\QtProjects\\untitled2\\venv\\Lib\\site-packages\\packaging\\_manylinux.py',
   'PYMODULE'),
  ('ctypes', 'C:\\Python311\\Lib\\ctypes\\__init__.py', 'PYMODULE'),
  ('ctypes._endian', 'C:\\Python311\\Lib\\ctypes\\_endian.py', 'PYMODULE'),
  ('packaging._elffile',
   'C:\\Users\\Fallasin\\Documents\\QtProjects\\untitled2\\venv\\Lib\\site-packages\\packaging\\_elffile.py',
   'PYMODULE'),
  ('packaging',
   'C:\\Users\\Fallasin\\Documents\\QtProjects\\untitled2\\venv\\Lib\\site-packages\\packaging\\__init__.py',
   'PYMODULE'),
  ('pkg_resources._vendor.zipp',
   'C:\\Users\\Fallasin\\Documents\\QtProjects\\untitled2\\venv\\Lib\\site-packages\\pkg_resources\\_vendor\\zipp.py',
   'PYMODULE'),
  ('pkg_resources._vendor.pyparsing.util',
   'C:\\Users\\Fallasin\\Documents\\QtProjects\\untitled2\\venv\\Lib\\site-packages\\pkg_resources\\_vendor\\pyparsing\\util.py',
   'PYMODULE'),
  ('pkg_resources._vendor.pyparsing.unicode',
   'C:\\Users\\Fallasin\\Documents\\QtProjects\\untitled2\\venv\\Lib\\site-packages\\pkg_resources\\_vendor\\pyparsing\\unicode.py',
   'PYMODULE'),
  ('pkg_resources._vendor.pyparsing.testing',
   'C:\\Users\\Fallasin\\Documents\\QtProjects\\untitled2\\venv\\Lib\\site-packages\\pkg_resources\\_vendor\\pyparsing\\testing.py',
   'PYMODULE'),
  ('pkg_resources._vendor.pyparsing.results',
   'C:\\Users\\Fallasin\\Documents\\QtProjects\\untitled2\\venv\\Lib\\site-packages\\pkg_resources\\_vendor\\pyparsing\\results.py',
   'PYMODULE'),
  ('pkg_resources._vendor.pyparsing.helpers',
   'C:\\Users\\Fallasin\\Documents\\QtProjects\\untitled2\\venv\\Lib\\site-packages\\pkg_resources\\_vendor\\pyparsing\\helpers.py',
   'PYMODULE'),
  ('html.entities', 'C:\\Python311\\Lib\\html\\entities.py', 'PYMODULE'),
  ('html', 'C:\\Python311\\Lib\\html\\__init__.py', 'PYMODULE'),
  ('pkg_resources._vendor.pyparsing.exceptions',
   'C:\\Users\\Fallasin\\Documents\\QtProjects\\untitled2\\venv\\Lib\\site-packages\\pkg_resources\\_vendor\\pyparsing\\exceptions.py',
   'PYMODULE'),
  ('pkg_resources._vendor.pyparsing.core',
   'C:\\Users\\Fallasin\\Documents\\QtProjects\\untitled2\\venv\\Lib\\site-packages\\pkg_resources\\_vendor\\pyparsing\\core.py',
   'PYMODULE'),
  ('pkg_resources._vendor.pyparsing.diagram',
   'C:\\Users\\Fallasin\\Documents\\QtProjects\\untitled2\\venv\\Lib\\site-packages\\pkg_resources\\_vendor\\pyparsing\\diagram\\__init__.py',
   'PYMODULE'),
  ('pdb', 'C:\\Python311\\Lib\\pdb.py', 'PYMODULE'),
  ('pydoc', 'C:\\Python311\\Lib\\pydoc.py', 'PYMODULE'),
  ('webbrowser', 'C:\\Python311\\Lib\\webbrowser.py', 'PYMODULE'),
  ('http.server', 'C:\\Python311\\Lib\\http\\server.py', 'PYMODULE'),
  ('http', 'C:\\Python311\\Lib\\http\\__init__.py', 'PYMODULE'),
  ('socketserver', 'C:\\Python311\\Lib\\socketserver.py', 'PYMODULE'),
  ('mimetypes', 'C:\\Python311\\Lib\\mimetypes.py', 'PYMODULE'),
  ('http.client', 'C:\\Python311\\Lib\\http\\client.py', 'PYMODULE'),
  ('ssl', 'C:\\Python311\\Lib\\ssl.py', 'PYMODULE'),
  ('pydoc_data.topics',
   'C:\\Python311\\Lib\\pydoc_data\\topics.py',
   'PYMODULE'),
  ('pydoc_data', 'C:\\Python311\\Lib\\pydoc_data\\__init__.py', 'PYMODULE'),
  ('tty', 'C:\\Python311\\Lib\\tty.py', 'PYMODULE'),
  ('__future__', 'C:\\Python311\\Lib\\__future__.py', 'PYMODULE'),
  ('shlex', 'C:\\Python311\\Lib\\shlex.py', 'PYMODULE'),
  ('runpy', 'C:\\Python311\\Lib\\runpy.py', 'PYMODULE'),
  ('signal', 'C:\\Python311\\Lib\\signal.py', 'PYMODULE'),
  ('glob', 'C:\\Python311\\Lib\\glob.py', 'PYMODULE'),
  ('code', 'C:\\Python311\\Lib\\code.py', 'PYMODULE'),
  ('codeop', 'C:\\Python311\\Lib\\codeop.py', 'PYMODULE'),
  ('bdb', 'C:\\Python311\\Lib\\bdb.py', 'PYMODULE'),
  ('cmd', 'C:\\Python311\\Lib\\cmd.py', 'PYMODULE'),
  ('pkg_resources._vendor.pyparsing.common',
   'C:\\Users\\Fallasin\\Documents\\QtProjects\\untitled2\\venv\\Lib\\site-packages\\pkg_resources\\_vendor\\pyparsing\\common.py',
   'PYMODULE'),
  ('pkg_resources._vendor.pyparsing.actions',
   'C:\\Users\\Fallasin\\Documents\\QtProjects\\untitled2\\venv\\Lib\\site-packages\\pkg_resources\\_vendor\\pyparsing\\actions.py',
   'PYMODULE'),
  ('pkg_resources._vendor.pyparsing',
   'C:\\Users\\Fallasin\\Documents\\QtProjects\\untitled2\\venv\\Lib\\site-packages\\pkg_resources\\_vendor\\pyparsing\\__init__.py',
   'PYMODULE'),
  ('pkg_resources._vendor.packaging.version',
   'C:\\Users\\Fallasin\\Documents\\QtProjects\\untitled2\\venv\\Lib\\site-packages\\pkg_resources\\_vendor\\packaging\\version.py',
   'PYMODULE'),
  ('pkg_resources._vendor.packaging.utils',
   'C:\\Users\\Fallasin\\Documents\\QtProjects\\untitled2\\venv\\Lib\\site-packages\\pkg_resources\\_vendor\\packaging\\utils.py',
   'PYMODULE'),
  ('pkg_resources._vendor.packaging.tags',
   'C:\\Users\\Fallasin\\Documents\\QtProjects\\untitled2\\venv\\Lib\\site-packages\\pkg_resources\\_vendor\\packaging\\tags.py',
   'PYMODULE'),
  ('pkg_resources._vendor.packaging.specifiers',
   'C:\\Users\\Fallasin\\Documents\\QtProjects\\untitled2\\venv\\Lib\\site-packages\\pkg_resources\\_vendor\\packaging\\specifiers.py',
   'PYMODULE'),
  ('pkg_resources._vendor.packaging.requirements',
   'C:\\Users\\Fallasin\\Documents\\QtProjects\\untitled2\\venv\\Lib\\site-packages\\pkg_resources\\_vendor\\packaging\\requirements.py',
   'PYMODULE'),
  ('pkg_resources._vendor.packaging.markers',
   'C:\\Users\\Fallasin\\Documents\\QtProjects\\untitled2\\venv\\Lib\\site-packages\\pkg_resources\\_vendor\\packaging\\markers.py',
   'PYMODULE'),
  ('pkg_resources._vendor.packaging._structures',
   'C:\\Users\\Fallasin\\Documents\\QtProjects\\untitled2\\venv\\Lib\\site-packages\\pkg_resources\\_vendor\\packaging\\_structures.py',
   'PYMODULE'),
  ('pkg_resources._vendor.packaging._musllinux',
   'C:\\Users\\Fallasin\\Documents\\QtProjects\\untitled2\\venv\\Lib\\site-packages\\pkg_resources\\_vendor\\packaging\\_musllinux.py',
   'PYMODULE'),
  ('pkg_resources._vendor.packaging._manylinux',
   'C:\\Users\\Fallasin\\Documents\\QtProjects\\untitled2\\venv\\Lib\\site-packages\\pkg_resources\\_vendor\\packaging\\_manylinux.py',
   'PYMODULE'),
  ('pkg_resources._vendor.packaging.__about__',
   'C:\\Users\\Fallasin\\Documents\\QtProjects\\untitled2\\venv\\Lib\\site-packages\\pkg_resources\\_vendor\\packaging\\__about__.py',
   'PYMODULE'),
  ('pkg_resources._vendor.packaging',
   'C:\\Users\\Fallasin\\Documents\\QtProjects\\untitled2\\venv\\Lib\\site-packages\\pkg_resources\\_vendor\\packaging\\__init__.py',
   'PYMODULE'),
  ('pkg_resources._vendor.more_itertools.recipes',
   'C:\\Users\\Fallasin\\Documents\\QtProjects\\untitled2\\venv\\Lib\\site-packages\\pkg_resources\\_vendor\\more_itertools\\recipes.py',
   'PYMODULE'),
  ('pkg_resources._vendor.more_itertools.more',
   'C:\\Users\\Fallasin\\Documents\\QtProjects\\untitled2\\venv\\Lib\\site-packages\\pkg_resources\\_vendor\\more_itertools\\more.py',
   'PYMODULE'),
  ('queue', 'C:\\Python311\\Lib\\queue.py', 'PYMODULE'),
  ('pkg_resources._vendor.more_itertools',
   'C:\\Users\\Fallasin\\Documents\\QtProjects\\untitled2\\venv\\Lib\\site-packages\\pkg_resources\\_vendor\\more_itertools\\__init__.py',
   'PYMODULE'),
  ('pkg_resources._vendor.jaraco.text',
   'C:\\Users\\Fallasin\\Documents\\QtProjects\\untitled2\\venv\\Lib\\site-packages\\pkg_resources\\_vendor\\jaraco\\text\\__init__.py',
   'PYMODULE'),
  ('pkg_resources._vendor.jaraco.functools',
   'C:\\Users\\Fallasin\\Documents\\QtProjects\\untitled2\\venv\\Lib\\site-packages\\pkg_resources\\_vendor\\jaraco\\functools.py',
   'PYMODULE'),
  ('pkg_resources._vendor.jaraco.context',
   'C:\\Users\\Fallasin\\Documents\\QtProjects\\untitled2\\venv\\Lib\\site-packages\\pkg_resources\\_vendor\\jaraco\\context.py',
   'PYMODULE'),
  ('pkg_resources._vendor.jaraco',
   'C:\\Users\\Fallasin\\Documents\\QtProjects\\untitled2\\venv\\Lib\\site-packages\\pkg_resources\\_vendor\\jaraco\\__init__.py',
   'PYMODULE'),
  ('pkg_resources._vendor.importlib_resources.simple',
   'C:\\Users\\Fallasin\\Documents\\QtProjects\\untitled2\\venv\\Lib\\site-packages\\pkg_resources\\_vendor\\importlib_resources\\simple.py',
   'PYMODULE'),
  ('pkg_resources._vendor.importlib_resources.readers',
   'C:\\Users\\Fallasin\\Documents\\QtProjects\\untitled2\\venv\\Lib\\site-packages\\pkg_resources\\_vendor\\importlib_resources\\readers.py',
   'PYMODULE'),
  ('pkg_resources._vendor.importlib_resources.abc',
   'C:\\Users\\Fallasin\\Documents\\QtProjects\\untitled2\\venv\\Lib\\site-packages\\pkg_resources\\_vendor\\importlib_resources\\abc.py',
   'PYMODULE'),
  ('pkg_resources._vendor.importlib_resources._legacy',
   'C:\\Users\\Fallasin\\Documents\\QtProjects\\untitled2\\venv\\Lib\\site-packages\\pkg_resources\\_vendor\\importlib_resources\\_legacy.py',
   'PYMODULE'),
  ('pkg_resources._vendor.importlib_resources._itertools',
   'C:\\Users\\Fallasin\\Documents\\QtProjects\\untitled2\\venv\\Lib\\site-packages\\pkg_resources\\_vendor\\importlib_resources\\_itertools.py',
   'PYMODULE'),
  ('pkg_resources._vendor.importlib_resources._compat',
   'C:\\Users\\Fallasin\\Documents\\QtProjects\\untitled2\\venv\\Lib\\site-packages\\pkg_resources\\_vendor\\importlib_resources\\_compat.py',
   'PYMODULE'),
  ('pkg_resources._vendor.importlib_resources._common',
   'C:\\Users\\Fallasin\\Documents\\QtProjects\\untitled2\\venv\\Lib\\site-packages\\pkg_resources\\_vendor\\importlib_resources\\_common.py',
   'PYMODULE'),
  ('pkg_resources._vendor.importlib_resources._adapters',
   'C:\\Users\\Fallasin\\Documents\\QtProjects\\untitled2\\venv\\Lib\\site-packages\\pkg_resources\\_vendor\\importlib_resources\\_adapters.py',
   'PYMODULE'),
  ('pkg_resources._vendor.importlib_resources',
   'C:\\Users\\Fallasin\\Documents\\QtProjects\\untitled2\\venv\\Lib\\site-packages\\pkg_resources\\_vendor\\importlib_resources\\__init__.py',
   'PYMODULE'),
  ('pkg_resources._vendor.appdirs',
   'C:\\Users\\Fallasin\\Documents\\QtProjects\\untitled2\\venv\\Lib\\site-packages\\pkg_resources\\_vendor\\appdirs.py',
   'PYMODULE'),
  ('pkg_resources._vendor',
   'C:\\Users\\Fallasin\\Documents\\QtProjects\\untitled2\\venv\\Lib\\site-packages\\pkg_resources\\_vendor\\__init__.py',
   'PYMODULE'),
  ('sysconfig', 'C:\\Python311\\Lib\\sysconfig.py', 'PYMODULE'),
  ('_aix_support', 'C:\\Python311\\Lib\\_aix_support.py', 'PYMODULE'),
  ('_bootsubprocess', 'C:\\Python311\\Lib\\_bootsubprocess.py', 'PYMODULE'),
  ('pkg_resources.extern',
   'C:\\Users\\Fallasin\\Documents\\QtProjects\\untitled2\\venv\\Lib\\site-packages\\pkg_resources\\extern\\__init__.py',
   'PYMODULE'),
  ('imp', 'C:\\Python311\\Lib\\imp.py', 'PYMODULE'),
  ('plistlib', 'C:\\Python311\\Lib\\plistlib.py', 'PYMODULE'),
  ('xml.parsers.expat',
   'C:\\Python311\\Lib\\xml\\parsers\\expat.py',
   'PYMODULE'),
  ('xml.parsers', 'C:\\Python311\\Lib\\xml\\parsers\\__init__.py', 'PYMODULE'),
  ('xml', 'C:\\Python311\\Lib\\xml\\__init__.py', 'PYMODULE'),
  ('xml.sax.expatreader',
   'C:\\Python311\\Lib\\xml\\sax\\expatreader.py',
   'PYMODULE'),
  ('xml.sax.saxutils', 'C:\\Python311\\Lib\\xml\\sax\\saxutils.py', 'PYMODULE'),
  ('urllib.request', 'C:\\Python311\\Lib\\urllib\\request.py', 'PYMODULE'),
  ('getpass', 'C:\\Python311\\Lib\\getpass.py', 'PYMODULE'),
  ('nturl2path', 'C:\\Python311\\Lib\\nturl2path.py', 'PYMODULE'),
  ('ftplib', 'C:\\Python311\\Lib\\ftplib.py', 'PYMODULE'),
  ('netrc', 'C:\\Python311\\Lib\\netrc.py', 'PYMODULE'),
  ('http.cookiejar', 'C:\\Python311\\Lib\\http\\cookiejar.py', 'PYMODULE'),
  ('urllib.response', 'C:\\Python311\\Lib\\urllib\\response.py', 'PYMODULE'),
  ('urllib.error', 'C:\\Python311\\Lib\\urllib\\error.py', 'PYMODULE'),
  ('xml.sax', 'C:\\Python311\\Lib\\xml\\sax\\__init__.py', 'PYMODULE'),
  ('xml.sax.handler', 'C:\\Python311\\Lib\\xml\\sax\\handler.py', 'PYMODULE'),
  ('xml.sax._exceptions',
   'C:\\Python311\\Lib\\xml\\sax\\_exceptions.py',
   'PYMODULE'),
  ('xml.sax.xmlreader',
   'C:\\Python311\\Lib\\xml\\sax\\xmlreader.py',
   'PYMODULE'),
  ('platform', 'C:\\Python311\\Lib\\platform.py', 'PYMODULE'),
  ('tracemalloc', 'C:\\Python311\\Lib\\tracemalloc.py', 'PYMODULE'),
  ('stringprep', 'C:\\Python311\\Lib\\stringprep.py', 'PYMODULE'),
  ('_py_abc', 'C:\\Python311\\Lib\\_py_abc.py', 'PYMODULE'),
  ('Neumorphism.Neumorphism',
   'C:\\Users\\Fallasin\\Documents\\QtProjects\\WindowsInstallationWizard\\InstallationWizardGui\\Neumorphism\\Neumorphism.py',
   'PYMODULE'),
  ('Neumorphism', '-', 'PYMODULE'),
  ('PySide6',
   'C:\\Users\\Fallasin\\Documents\\QtProjects\\untitled2\\venv\\Lib\\site-packages\\PySide6\\__init__.py',
   'PYMODULE'),
  ('PySide6.support.deprecated',
   'C:\\Users\\Fallasin\\Documents\\QtProjects\\untitled2\\venv\\Lib\\site-packages\\PySide6\\support\\deprecated.py',
   'PYMODULE'),
  ('PySide6.support',
   'C:\\Users\\Fallasin\\Documents\\QtProjects\\untitled2\\venv\\Lib\\site-packages\\PySide6\\support\\__init__.py',
   'PYMODULE'),
  ('shiboken6',
   'C:\\Users\\Fallasin\\Documents\\QtProjects\\untitled2\\venv\\Lib\\site-packages\\shiboken6\\__init__.py',
   'PYMODULE'),
  ('classes.icon_extraction_lib',
   'C:\\Users\\Fallasin\\Documents\\QtProjects\\WindowsInstallationWizard\\InstallationWizardGui\\classes\\icon_extraction_lib.py',
   'PYMODULE'),
  ('classes', '-', 'PYMODULE'),
  ('PIL.Image',
   'C:\\Users\\Fallasin\\Documents\\QtProjects\\untitled2\\venv\\Lib\\site-packages\\PIL\\Image.py',
   'PYMODULE'),
  ('PIL.XpmImagePlugin',
   'C:\\Users\\Fallasin\\Documents\\QtProjects\\untitled2\\venv\\Lib\\site-packages\\PIL\\XpmImagePlugin.py',
   'PYMODULE'),
  ('PIL.ImageFile',
   'C:\\Users\\Fallasin\\Documents\\QtProjects\\untitled2\\venv\\Lib\\site-packages\\PIL\\ImageFile.py',
   'PYMODULE'),
  ('PIL._deprecate',
   'C:\\Users\\Fallasin\\Documents\\QtProjects\\untitled2\\venv\\Lib\\site-packages\\PIL\\_deprecate.py',
   'PYMODULE'),
  ('PIL.XbmImagePlugin',
   'C:\\Users\\Fallasin\\Documents\\QtProjects\\untitled2\\venv\\Lib\\site-packages\\PIL\\XbmImagePlugin.py',
   'PYMODULE'),
  ('PIL.XVThumbImagePlugin',
   'C:\\Users\\Fallasin\\Documents\\QtProjects\\untitled2\\venv\\Lib\\site-packages\\PIL\\XVThumbImagePlugin.py',
   'PYMODULE'),
  ('PIL.WmfImagePlugin',
   'C:\\Users\\Fallasin\\Documents\\QtProjects\\untitled2\\venv\\Lib\\site-packages\\PIL\\WmfImagePlugin.py',
   'PYMODULE'),
  ('PIL.WebPImagePlugin',
   'C:\\Users\\Fallasin\\Documents\\QtProjects\\untitled2\\venv\\Lib\\site-packages\\PIL\\WebPImagePlugin.py',
   'PYMODULE'),
  ('PIL.TgaImagePlugin',
   'C:\\Users\\Fallasin\\Documents\\QtProjects\\untitled2\\venv\\Lib\\site-packages\\PIL\\TgaImagePlugin.py',
   'PYMODULE'),
  ('PIL.SunImagePlugin',
   'C:\\Users\\Fallasin\\Documents\\QtProjects\\untitled2\\venv\\Lib\\site-packages\\PIL\\SunImagePlugin.py',
   'PYMODULE'),
  ('PIL.SpiderImagePlugin',
   'C:\\Users\\Fallasin\\Documents\\QtProjects\\untitled2\\venv\\Lib\\site-packages\\PIL\\SpiderImagePlugin.py',
   'PYMODULE'),
  ('PIL.ImageTk',
   'C:\\Users\\Fallasin\\Documents\\QtProjects\\untitled2\\venv\\Lib\\site-packages\\PIL\\ImageTk.py',
   'PYMODULE'),
  ('PIL.SgiImagePlugin',
   'C:\\Users\\Fallasin\\Documents\\QtProjects\\untitled2\\venv\\Lib\\site-packages\\PIL\\SgiImagePlugin.py',
   'PYMODULE'),
  ('PIL.QoiImagePlugin',
   'C:\\Users\\Fallasin\\Documents\\QtProjects\\untitled2\\venv\\Lib\\site-packages\\PIL\\QoiImagePlugin.py',
   'PYMODULE'),
  ('PIL.PsdImagePlugin',
   'C:\\Users\\Fallasin\\Documents\\QtProjects\\untitled2\\venv\\Lib\\site-packages\\PIL\\PsdImagePlugin.py',
   'PYMODULE'),
  ('PIL.PixarImagePlugin',
   'C:\\Users\\Fallasin\\Documents\\QtProjects\\untitled2\\venv\\Lib\\site-packages\\PIL\\PixarImagePlugin.py',
   'PYMODULE'),
  ('PIL.PdfImagePlugin',
   'C:\\Users\\Fallasin\\Documents\\QtProjects\\untitled2\\venv\\Lib\\site-packages\\PIL\\PdfImagePlugin.py',
   'PYMODULE'),
  ('PIL.features',
   'C:\\Users\\Fallasin\\Documents\\QtProjects\\untitled2\\venv\\Lib\\site-packages\\PIL\\features.py',
   'PYMODULE'),
  ('PIL.PdfParser',
   'C:\\Users\\Fallasin\\Documents\\QtProjects\\untitled2\\venv\\Lib\\site-packages\\PIL\\PdfParser.py',
   'PYMODULE'),
  ('PIL.ImageSequence',
   'C:\\Users\\Fallasin\\Documents\\QtProjects\\untitled2\\venv\\Lib\\site-packages\\PIL\\ImageSequence.py',
   'PYMODULE'),
  ('PIL.PcxImagePlugin',
   'C:\\Users\\Fallasin\\Documents\\QtProjects\\untitled2\\venv\\Lib\\site-packages\\PIL\\PcxImagePlugin.py',
   'PYMODULE'),
  ('PIL.PcdImagePlugin',
   'C:\\Users\\Fallasin\\Documents\\QtProjects\\untitled2\\venv\\Lib\\site-packages\\PIL\\PcdImagePlugin.py',
   'PYMODULE'),
  ('PIL.PalmImagePlugin',
   'C:\\Users\\Fallasin\\Documents\\QtProjects\\untitled2\\venv\\Lib\\site-packages\\PIL\\PalmImagePlugin.py',
   'PYMODULE'),
  ('PIL.MspImagePlugin',
   'C:\\Users\\Fallasin\\Documents\\QtProjects\\untitled2\\venv\\Lib\\site-packages\\PIL\\MspImagePlugin.py',
   'PYMODULE'),
  ('PIL.MpoImagePlugin',
   'C:\\Users\\Fallasin\\Documents\\QtProjects\\untitled2\\venv\\Lib\\site-packages\\PIL\\MpoImagePlugin.py',
   'PYMODULE'),
  ('PIL.MpegImagePlugin',
   'C:\\Users\\Fallasin\\Documents\\QtProjects\\untitled2\\venv\\Lib\\site-packages\\PIL\\MpegImagePlugin.py',
   'PYMODULE'),
  ('PIL.MicImagePlugin',
   'C:\\Users\\Fallasin\\Documents\\QtProjects\\untitled2\\venv\\Lib\\site-packages\\PIL\\MicImagePlugin.py',
   'PYMODULE'),
  ('PIL.McIdasImagePlugin',
   'C:\\Users\\Fallasin\\Documents\\QtProjects\\untitled2\\venv\\Lib\\site-packages\\PIL\\McIdasImagePlugin.py',
   'PYMODULE'),
  ('PIL.Jpeg2KImagePlugin',
   'C:\\Users\\Fallasin\\Documents\\QtProjects\\untitled2\\venv\\Lib\\site-packages\\PIL\\Jpeg2KImagePlugin.py',
   'PYMODULE'),
  ('PIL.IptcImagePlugin',
   'C:\\Users\\Fallasin\\Documents\\QtProjects\\untitled2\\venv\\Lib\\site-packages\\PIL\\IptcImagePlugin.py',
   'PYMODULE'),
  ('PIL.ImtImagePlugin',
   'C:\\Users\\Fallasin\\Documents\\QtProjects\\untitled2\\venv\\Lib\\site-packages\\PIL\\ImtImagePlugin.py',
   'PYMODULE'),
  ('PIL.ImImagePlugin',
   'C:\\Users\\Fallasin\\Documents\\QtProjects\\untitled2\\venv\\Lib\\site-packages\\PIL\\ImImagePlugin.py',
   'PYMODULE'),
  ('PIL.IcoImagePlugin',
   'C:\\Users\\Fallasin\\Documents\\QtProjects\\untitled2\\venv\\Lib\\site-packages\\PIL\\IcoImagePlugin.py',
   'PYMODULE'),
  ('PIL.IcnsImagePlugin',
   'C:\\Users\\Fallasin\\Documents\\QtProjects\\untitled2\\venv\\Lib\\site-packages\\PIL\\IcnsImagePlugin.py',
   'PYMODULE'),
  ('PIL.Hdf5StubImagePlugin',
   'C:\\Users\\Fallasin\\Documents\\QtProjects\\untitled2\\venv\\Lib\\site-packages\\PIL\\Hdf5StubImagePlugin.py',
   'PYMODULE'),
  ('PIL.GribStubImagePlugin',
   'C:\\Users\\Fallasin\\Documents\\QtProjects\\untitled2\\venv\\Lib\\site-packages\\PIL\\GribStubImagePlugin.py',
   'PYMODULE'),
  ('PIL.GbrImagePlugin',
   'C:\\Users\\Fallasin\\Documents\\QtProjects\\untitled2\\venv\\Lib\\site-packages\\PIL\\GbrImagePlugin.py',
   'PYMODULE'),
  ('PIL.FtexImagePlugin',
   'C:\\Users\\Fallasin\\Documents\\QtProjects\\untitled2\\venv\\Lib\\site-packages\\PIL\\FtexImagePlugin.py',
   'PYMODULE'),
  ('PIL.FpxImagePlugin',
   'C:\\Users\\Fallasin\\Documents\\QtProjects\\untitled2\\venv\\Lib\\site-packages\\PIL\\FpxImagePlugin.py',
   'PYMODULE'),
  ('PIL.FliImagePlugin',
   'C:\\Users\\Fallasin\\Documents\\QtProjects\\untitled2\\venv\\Lib\\site-packages\\PIL\\FliImagePlugin.py',
   'PYMODULE'),
  ('PIL.FitsImagePlugin',
   'C:\\Users\\Fallasin\\Documents\\QtProjects\\untitled2\\venv\\Lib\\site-packages\\PIL\\FitsImagePlugin.py',
   'PYMODULE'),
  ('PIL.EpsImagePlugin',
   'C:\\Users\\Fallasin\\Documents\\QtProjects\\untitled2\\venv\\Lib\\site-packages\\PIL\\EpsImagePlugin.py',
   'PYMODULE'),
  ('PIL.DdsImagePlugin',
   'C:\\Users\\Fallasin\\Documents\\QtProjects\\untitled2\\venv\\Lib\\site-packages\\PIL\\DdsImagePlugin.py',
   'PYMODULE'),
  ('PIL.DcxImagePlugin',
   'C:\\Users\\Fallasin\\Documents\\QtProjects\\untitled2\\venv\\Lib\\site-packages\\PIL\\DcxImagePlugin.py',
   'PYMODULE'),
  ('PIL.CurImagePlugin',
   'C:\\Users\\Fallasin\\Documents\\QtProjects\\untitled2\\venv\\Lib\\site-packages\\PIL\\CurImagePlugin.py',
   'PYMODULE'),
  ('PIL.BufrStubImagePlugin',
   'C:\\Users\\Fallasin\\Documents\\QtProjects\\untitled2\\venv\\Lib\\site-packages\\PIL\\BufrStubImagePlugin.py',
   'PYMODULE'),
  ('PIL.BlpImagePlugin',
   'C:\\Users\\Fallasin\\Documents\\QtProjects\\untitled2\\venv\\Lib\\site-packages\\PIL\\BlpImagePlugin.py',
   'PYMODULE'),
  ('PIL.TiffImagePlugin',
   'C:\\Users\\Fallasin\\Documents\\QtProjects\\untitled2\\venv\\Lib\\site-packages\\PIL\\TiffImagePlugin.py',
   'PYMODULE'),
  ('PIL.ImageOps',
   'C:\\Users\\Fallasin\\Documents\\QtProjects\\untitled2\\venv\\Lib\\site-packages\\PIL\\ImageOps.py',
   'PYMODULE'),
  ('PIL.ImageShow',
   'C:\\Users\\Fallasin\\Documents\\QtProjects\\untitled2\\venv\\Lib\\site-packages\\PIL\\ImageShow.py',
   'PYMODULE'),
  ('PIL.ImageQt',
   'C:\\Users\\Fallasin\\Documents\\QtProjects\\untitled2\\venv\\Lib\\site-packages\\PIL\\ImageQt.py',
   'PYMODULE'),
  ('PIL.ImageColor',
   'C:\\Users\\Fallasin\\Documents\\QtProjects\\untitled2\\venv\\Lib\\site-packages\\PIL\\ImageColor.py',
   'PYMODULE'),
  ('colorsys', 'C:\\Python311\\Lib\\colorsys.py', 'PYMODULE'),
  ('PIL.ImageFilter',
   'C:\\Users\\Fallasin\\Documents\\QtProjects\\untitled2\\venv\\Lib\\site-packages\\PIL\\ImageFilter.py',
   'PYMODULE'),
  ('PIL.ImageCms',
   'C:\\Users\\Fallasin\\Documents\\QtProjects\\untitled2\\venv\\Lib\\site-packages\\PIL\\ImageCms.py',
   'PYMODULE'),
  ('PIL.ImageWin',
   'C:\\Users\\Fallasin\\Documents\\QtProjects\\untitled2\\venv\\Lib\\site-packages\\PIL\\ImageWin.py',
   'PYMODULE'),
  ('PIL.PyAccess',
   'C:\\Users\\Fallasin\\Documents\\QtProjects\\untitled2\\venv\\Lib\\site-packages\\PIL\\PyAccess.py',
   'PYMODULE'),
  ('PIL.ImagePalette',
   'C:\\Users\\Fallasin\\Documents\\QtProjects\\untitled2\\venv\\Lib\\site-packages\\PIL\\ImagePalette.py',
   'PYMODULE'),
  ('PIL.PaletteFile',
   'C:\\Users\\Fallasin\\Documents\\QtProjects\\untitled2\\venv\\Lib\\site-packages\\PIL\\PaletteFile.py',
   'PYMODULE'),
  ('PIL.GimpPaletteFile',
   'C:\\Users\\Fallasin\\Documents\\QtProjects\\untitled2\\venv\\Lib\\site-packages\\PIL\\GimpPaletteFile.py',
   'PYMODULE'),
  ('PIL.GimpGradientFile',
   'C:\\Users\\Fallasin\\Documents\\QtProjects\\untitled2\\venv\\Lib\\site-packages\\PIL\\GimpGradientFile.py',
   'PYMODULE'),
  ('PIL.PngImagePlugin',
   'C:\\Users\\Fallasin\\Documents\\QtProjects\\untitled2\\venv\\Lib\\site-packages\\PIL\\PngImagePlugin.py',
   'PYMODULE'),
  ('PIL.ImageChops',
   'C:\\Users\\Fallasin\\Documents\\QtProjects\\untitled2\\venv\\Lib\\site-packages\\PIL\\ImageChops.py',
   'PYMODULE'),
  ('PIL.PpmImagePlugin',
   'C:\\Users\\Fallasin\\Documents\\QtProjects\\untitled2\\venv\\Lib\\site-packages\\PIL\\PpmImagePlugin.py',
   'PYMODULE'),
  ('PIL.JpegImagePlugin',
   'C:\\Users\\Fallasin\\Documents\\QtProjects\\untitled2\\venv\\Lib\\site-packages\\PIL\\JpegImagePlugin.py',
   'PYMODULE'),
  ('PIL.JpegPresets',
   'C:\\Users\\Fallasin\\Documents\\QtProjects\\untitled2\\venv\\Lib\\site-packages\\PIL\\JpegPresets.py',
   'PYMODULE'),
  ('PIL.GifImagePlugin',
   'C:\\Users\\Fallasin\\Documents\\QtProjects\\untitled2\\venv\\Lib\\site-packages\\PIL\\GifImagePlugin.py',
   'PYMODULE'),
  ('PIL.ImageMath',
   'C:\\Users\\Fallasin\\Documents\\QtProjects\\untitled2\\venv\\Lib\\site-packages\\PIL\\ImageMath.py',
   'PYMODULE'),
  ('PIL.BmpImagePlugin',
   'C:\\Users\\Fallasin\\Documents\\QtProjects\\untitled2\\venv\\Lib\\site-packages\\PIL\\BmpImagePlugin.py',
   'PYMODULE'),
  ('PIL._util',
   'C:\\Users\\Fallasin\\Documents\\QtProjects\\untitled2\\venv\\Lib\\site-packages\\PIL\\_util.py',
   'PYMODULE'),
  ('PIL._typing',
   'C:\\Users\\Fallasin\\Documents\\QtProjects\\untitled2\\venv\\Lib\\site-packages\\PIL\\_typing.py',
   'PYMODULE'),
  ('PIL._binary',
   'C:\\Users\\Fallasin\\Documents\\QtProjects\\untitled2\\venv\\Lib\\site-packages\\PIL\\_binary.py',
   'PYMODULE'),
  ('PIL.TiffTags',
   'C:\\Users\\Fallasin\\Documents\\QtProjects\\untitled2\\venv\\Lib\\site-packages\\PIL\\TiffTags.py',
   'PYMODULE'),
  ('PIL.ImageMode',
   'C:\\Users\\Fallasin\\Documents\\QtProjects\\untitled2\\venv\\Lib\\site-packages\\PIL\\ImageMode.py',
   'PYMODULE'),
  ('PIL.ExifTags',
   'C:\\Users\\Fallasin\\Documents\\QtProjects\\untitled2\\venv\\Lib\\site-packages\\PIL\\ExifTags.py',
   'PYMODULE'),
  ('PIL',
   'C:\\Users\\Fallasin\\Documents\\QtProjects\\untitled2\\venv\\Lib\\site-packages\\PIL\\__init__.py',
   'PYMODULE'),
  ('PIL._version',
   'C:\\Users\\Fallasin\\Documents\\QtProjects\\untitled2\\venv\\Lib\\site-packages\\PIL\\_version.py',
   'PYMODULE'),
  ('ctypes.wintypes', 'C:\\Python311\\Lib\\ctypes\\wintypes.py', 'PYMODULE'),
  ('ui_py_files.ui_Scriptless',
   'C:\\Users\\Fallasin\\Documents\\QtProjects\\WindowsInstallationWizard\\InstallationWizardGui\\ui_py_files\\ui_Scriptless.py',
   'PYMODULE'),
  ('ui_py_files', '-', 'PYMODULE'),
  ('ui_py_files.ui_UnifiedScriptInstall',
   'C:\\Users\\Fallasin\\Documents\\QtProjects\\WindowsInstallationWizard\\InstallationWizardGui\\ui_py_files\\ui_UnifiedScriptInstall.py',
   'PYMODULE'),
  ('ui_py_files.ui_ManualChoiceWindow',
   'C:\\Users\\Fallasin\\Documents\\QtProjects\\WindowsInstallationWizard\\InstallationWizardGui\\ui_py_files\\ui_ManualChoiceWindow.py',
   'PYMODULE'),
  ('ui_py_files.ui_ScriptChoiceWindowForChocoAndWinget',
   'C:\\Users\\Fallasin\\Documents\\QtProjects\\WindowsInstallationWizard\\InstallationWizardGui\\ui_py_files\\ui_ScriptChoiceWindowForChocoAndWinget.py',
   'PYMODULE'),
  ('ui_py_files.ui_WingetWindow',
   'C:\\Users\\Fallasin\\Documents\\QtProjects\\WindowsInstallationWizard\\InstallationWizardGui\\ui_py_files\\ui_WingetWindow.py',
   'PYMODULE'),
  ('ui_py_files.ui_ChocoWindow',
   'C:\\Users\\Fallasin\\Documents\\QtProjects\\WindowsInstallationWizard\\InstallationWizardGui\\ui_py_files\\ui_ChocoWindow.py',
   'PYMODULE'),
  ('ui_py_files.ui_ManualInstallationWindow',
   'C:\\Users\\Fallasin\\Documents\\QtProjects\\WindowsInstallationWizard\\InstallationWizardGui\\ui_py_files\\ui_ManualInstallationWindow.py',
   'PYMODULE'),
  ('ui_py_files.ui_ScriptInstallationWindow',
   'C:\\Users\\Fallasin\\Documents\\QtProjects\\WindowsInstallationWizard\\InstallationWizardGui\\ui_py_files\\ui_ScriptInstallationWindow.py',
   'PYMODULE'),
  ('ui_py_files.ui_ChristitustechWindow',
   'C:\\Users\\Fallasin\\Documents\\QtProjects\\WindowsInstallationWizard\\InstallationWizardGui\\ui_py_files\\ui_ChristitustechWindow.py',
   'PYMODULE'),
  ('ui_py_files.ui_form',
   'C:\\Users\\Fallasin\\Documents\\QtProjects\\WindowsInstallationWizard\\InstallationWizardGui\\ui_py_files\\ui_form.py',
   'PYMODULE'),
  ('subprocess', 'C:\\Python311\\Lib\\subprocess.py', 'PYMODULE')],
 [('python311.dll', 'C:\\Python311\\python311.dll', 'BINARY'),
  ('PySide6\\opengl32sw.dll',
   'C:\\Users\\Fallasin\\Documents\\QtProjects\\untitled2\\venv\\Lib\\site-packages\\PySide6\\opengl32sw.dll',
   'BINARY'),
  ('libssl-3-x64.dll', 'C:\\tools\\php82\\libssl-3-x64.dll', 'BINARY'),
  ('PySide6\\plugins\\tls\\qopensslbackend.dll',
   'C:\\Users\\Fallasin\\Documents\\QtProjects\\untitled2\\venv\\Lib\\site-packages\\PySide6\\plugins\\tls\\qopensslbackend.dll',
   'BINARY'),
  ('libcrypto-3-x64.dll', 'C:\\tools\\php82\\libcrypto-3-x64.dll', 'BINARY'),
  ('PySide6\\plugins\\networkinformation\\qnetworklistmanager.dll',
   'C:\\Users\\Fallasin\\Documents\\QtProjects\\untitled2\\venv\\Lib\\site-packages\\PySide6\\plugins\\networkinformation\\qnetworklistmanager.dll',
   'BINARY'),
  ('PySide6\\plugins\\tls\\qcertonlybackend.dll',
   'C:\\Users\\Fallasin\\Documents\\QtProjects\\untitled2\\venv\\Lib\\site-packages\\PySide6\\plugins\\tls\\qcertonlybackend.dll',
   'BINARY'),
  ('PySide6\\plugins\\tls\\qschannelbackend.dll',
   'C:\\Users\\Fallasin\\Documents\\QtProjects\\untitled2\\venv\\Lib\\site-packages\\PySide6\\plugins\\tls\\qschannelbackend.dll',
   'BINARY'),
  ('PySide6\\plugins\\imageformats\\qicns.dll',
   'C:\\Users\\Fallasin\\Documents\\QtProjects\\untitled2\\venv\\Lib\\site-packages\\PySide6\\plugins\\imageformats\\qicns.dll',
   'BINARY'),
  ('PySide6\\plugins\\generic\\qtuiotouchplugin.dll',
   'C:\\Users\\Fallasin\\Documents\\QtProjects\\untitled2\\venv\\Lib\\site-packages\\PySide6\\plugins\\generic\\qtuiotouchplugin.dll',
   'BINARY'),
  ('PySide6\\plugins\\platforms\\qminimal.dll',
   'C:\\Users\\Fallasin\\Documents\\QtProjects\\untitled2\\venv\\Lib\\site-packages\\PySide6\\plugins\\platforms\\qminimal.dll',
   'BINARY'),
  ('PySide6\\plugins\\imageformats\\qwbmp.dll',
   'C:\\Users\\Fallasin\\Documents\\QtProjects\\untitled2\\venv\\Lib\\site-packages\\PySide6\\plugins\\imageformats\\qwbmp.dll',
   'BINARY'),
  ('PySide6\\plugins\\imageformats\\qgif.dll',
   'C:\\Users\\Fallasin\\Documents\\QtProjects\\untitled2\\venv\\Lib\\site-packages\\PySide6\\plugins\\imageformats\\qgif.dll',
   'BINARY'),
  ('PySide6\\plugins\\platforms\\qwindows.dll',
   'C:\\Users\\Fallasin\\Documents\\QtProjects\\untitled2\\venv\\Lib\\site-packages\\PySide6\\plugins\\platforms\\qwindows.dll',
   'BINARY'),
  ('PySide6\\plugins\\imageformats\\qico.dll',
   'C:\\Users\\Fallasin\\Documents\\QtProjects\\untitled2\\venv\\Lib\\site-packages\\PySide6\\plugins\\imageformats\\qico.dll',
   'BINARY'),
  ('PySide6\\plugins\\imageformats\\qpdf.dll',
   'C:\\Users\\Fallasin\\Documents\\QtProjects\\untitled2\\venv\\Lib\\site-packages\\PySide6\\plugins\\imageformats\\qpdf.dll',
   'BINARY'),
  ('PySide6\\plugins\\imageformats\\qtga.dll',
   'C:\\Users\\Fallasin\\Documents\\QtProjects\\untitled2\\venv\\Lib\\site-packages\\PySide6\\plugins\\imageformats\\qtga.dll',
   'BINARY'),
  ('PySide6\\plugins\\platforminputcontexts\\qtvirtualkeyboardplugin.dll',
   'C:\\Users\\Fallasin\\Documents\\QtProjects\\untitled2\\venv\\Lib\\site-packages\\PySide6\\plugins\\platforminputcontexts\\qtvirtualkeyboardplugin.dll',
   'BINARY'),
  ('PySide6\\plugins\\platforms\\qoffscreen.dll',
   'C:\\Users\\Fallasin\\Documents\\QtProjects\\untitled2\\venv\\Lib\\site-packages\\PySide6\\plugins\\platforms\\qoffscreen.dll',
   'BINARY'),
  ('PySide6\\plugins\\platforms\\qdirect2d.dll',
   'C:\\Users\\Fallasin\\Documents\\QtProjects\\untitled2\\venv\\Lib\\site-packages\\PySide6\\plugins\\platforms\\qdirect2d.dll',
   'BINARY'),
  ('PySide6\\plugins\\iconengines\\qsvgicon.dll',
   'C:\\Users\\Fallasin\\Documents\\QtProjects\\untitled2\\venv\\Lib\\site-packages\\PySide6\\plugins\\iconengines\\qsvgicon.dll',
   'BINARY'),
  ('PySide6\\plugins\\imageformats\\qwebp.dll',
   'C:\\Users\\Fallasin\\Documents\\QtProjects\\untitled2\\venv\\Lib\\site-packages\\PySide6\\plugins\\imageformats\\qwebp.dll',
   'BINARY'),
  ('PySide6\\plugins\\imageformats\\qjpeg.dll',
   'C:\\Users\\Fallasin\\Documents\\QtProjects\\untitled2\\venv\\Lib\\site-packages\\PySide6\\plugins\\imageformats\\qjpeg.dll',
   'BINARY'),
  ('PySide6\\plugins\\imageformats\\qsvg.dll',
   'C:\\Users\\Fallasin\\Documents\\QtProjects\\untitled2\\venv\\Lib\\site-packages\\PySide6\\plugins\\imageformats\\qsvg.dll',
   'BINARY'),
  ('PySide6\\plugins\\imageformats\\qtiff.dll',
   'C:\\Users\\Fallasin\\Documents\\QtProjects\\untitled2\\venv\\Lib\\site-packages\\PySide6\\plugins\\imageformats\\qtiff.dll',
   'BINARY'),
  ('PySide6\\plugins\\styles\\qwindowsvistastyle.dll',
   'C:\\Users\\Fallasin\\Documents\\QtProjects\\untitled2\\venv\\Lib\\site-packages\\PySide6\\plugins\\styles\\qwindowsvistastyle.dll',
   'BINARY'),
  ('_decimal.pyd', 'C:\\Python311\\DLLs\\_decimal.pyd', 'EXTENSION'),
  ('_hashlib.pyd', 'C:\\Python311\\DLLs\\_hashlib.pyd', 'EXTENSION'),
  ('_lzma.pyd', 'C:\\Python311\\DLLs\\_lzma.pyd', 'EXTENSION'),
  ('_bz2.pyd', 'C:\\Python311\\DLLs\\_bz2.pyd', 'EXTENSION'),
  ('unicodedata.pyd', 'C:\\Python311\\DLLs\\unicodedata.pyd', 'EXTENSION'),
  ('select.pyd', 'C:\\Python311\\DLLs\\select.pyd', 'EXTENSION'),
  ('_socket.pyd', 'C:\\Python311\\DLLs\\_socket.pyd', 'EXTENSION'),
  ('_ctypes.pyd', 'C:\\Python311\\DLLs\\_ctypes.pyd', 'EXTENSION'),
  ('_ssl.pyd', 'C:\\Python311\\DLLs\\_ssl.pyd', 'EXTENSION'),
  ('_queue.pyd', 'C:\\Python311\\DLLs\\_queue.pyd', 'EXTENSION'),
  ('pyexpat.pyd', 'C:\\Python311\\DLLs\\pyexpat.pyd', 'EXTENSION'),
  ('PySide6\\QtNetwork.pyd',
   'C:\\Users\\Fallasin\\Documents\\QtProjects\\untitled2\\venv\\Lib\\site-packages\\PySide6\\QtNetwork.pyd',
   'EXTENSION'),
  ('shiboken6\\Shiboken.pyd',
   'C:\\Users\\Fallasin\\Documents\\QtProjects\\untitled2\\venv\\Lib\\site-packages\\shiboken6\\Shiboken.pyd',
   'EXTENSION'),
  ('PIL\\_webp.cp311-win_amd64.pyd',
   'C:\\Users\\Fallasin\\Documents\\QtProjects\\untitled2\\venv\\Lib\\site-packages\\PIL\\_webp.cp311-win_amd64.pyd',
   'EXTENSION'),
  ('PIL\\_imagingtk.cp311-win_amd64.pyd',
   'C:\\Users\\Fallasin\\Documents\\QtProjects\\untitled2\\venv\\Lib\\site-packages\\PIL\\_imagingtk.cp311-win_amd64.pyd',
   'EXTENSION'),
  ('PIL\\_imagingcms.cp311-win_amd64.pyd',
   'C:\\Users\\Fallasin\\Documents\\QtProjects\\untitled2\\venv\\Lib\\site-packages\\PIL\\_imagingcms.cp311-win_amd64.pyd',
   'EXTENSION'),
  ('PIL\\_imagingmath.cp311-win_amd64.pyd',
   'C:\\Users\\Fallasin\\Documents\\QtProjects\\untitled2\\venv\\Lib\\site-packages\\PIL\\_imagingmath.cp311-win_amd64.pyd',
   'EXTENSION'),
  ('PIL\\_imaging.cp311-win_amd64.pyd',
   'C:\\Users\\Fallasin\\Documents\\QtProjects\\untitled2\\venv\\Lib\\site-packages\\PIL\\_imaging.cp311-win_amd64.pyd',
   'EXTENSION'),
  ('PySide6\\QtGui.pyd',
   'C:\\Users\\Fallasin\\Documents\\QtProjects\\untitled2\\venv\\Lib\\site-packages\\PySide6\\QtGui.pyd',
   'EXTENSION'),
  ('PySide6\\QtUiTools.pyd',
   'C:\\Users\\Fallasin\\Documents\\QtProjects\\untitled2\\venv\\Lib\\site-packages\\PySide6\\QtUiTools.pyd',
   'EXTENSION'),
  ('PySide6\\QtOpenGLWidgets.pyd',
   'C:\\Users\\Fallasin\\Documents\\QtProjects\\untitled2\\venv\\Lib\\site-packages\\PySide6\\QtOpenGLWidgets.pyd',
   'EXTENSION'),
  ('PySide6\\QtOpenGL.pyd',
   'C:\\Users\\Fallasin\\Documents\\QtProjects\\untitled2\\venv\\Lib\\site-packages\\PySide6\\QtOpenGL.pyd',
   'EXTENSION'),
  ('PySide6\\QtCore.pyd',
   'C:\\Users\\Fallasin\\Documents\\QtProjects\\untitled2\\venv\\Lib\\site-packages\\PySide6\\QtCore.pyd',
   'EXTENSION'),
  ('PySide6\\QtWidgets.pyd',
   'C:\\Users\\Fallasin\\Documents\\QtProjects\\untitled2\\venv\\Lib\\site-packages\\PySide6\\QtWidgets.pyd',
   'EXTENSION'),
  ('api-ms-win-crt-heap-l1-1-0.dll',
   'C:\\Program '
   'Files\\Java\\graalvm-jdk-21\\bin\\api-ms-win-crt-heap-l1-1-0.dll',
   'BINARY'),
  ('api-ms-win-crt-process-l1-1-0.dll',
   'C:\\Program '
   'Files\\Java\\graalvm-jdk-21\\bin\\api-ms-win-crt-process-l1-1-0.dll',
   'BINARY'),
  ('VCRUNTIME140.dll', 'C:\\Python311\\VCRUNTIME140.dll', 'BINARY'),
  ('api-ms-win-crt-math-l1-1-0.dll',
   'C:\\Program '
   'Files\\Java\\graalvm-jdk-21\\bin\\api-ms-win-crt-math-l1-1-0.dll',
   'BINARY'),
  ('api-ms-win-crt-stdio-l1-1-0.dll',
   'C:\\Program '
   'Files\\Java\\graalvm-jdk-21\\bin\\api-ms-win-crt-stdio-l1-1-0.dll',
   'BINARY'),
  ('api-ms-win-crt-environment-l1-1-0.dll',
   'C:\\Program '
   'Files\\Java\\graalvm-jdk-21\\bin\\api-ms-win-crt-environment-l1-1-0.dll',
   'BINARY'),
  ('api-ms-win-crt-time-l1-1-0.dll',
   'C:\\Program '
   'Files\\Java\\graalvm-jdk-21\\bin\\api-ms-win-crt-time-l1-1-0.dll',
   'BINARY'),
  ('api-ms-win-crt-conio-l1-1-0.dll',
   'C:\\Program '
   'Files\\Java\\graalvm-jdk-21\\bin\\api-ms-win-crt-conio-l1-1-0.dll',
   'BINARY'),
  ('api-ms-win-crt-filesystem-l1-1-0.dll',
   'C:\\Program '
   'Files\\Java\\graalvm-jdk-21\\bin\\api-ms-win-crt-filesystem-l1-1-0.dll',
   'BINARY'),
  ('api-ms-win-crt-string-l1-1-0.dll',
   'C:\\Program '
   'Files\\Java\\graalvm-jdk-21\\bin\\api-ms-win-crt-string-l1-1-0.dll',
   'BINARY'),
  ('api-ms-win-crt-runtime-l1-1-0.dll',
   'C:\\Program '
   'Files\\Java\\graalvm-jdk-21\\bin\\api-ms-win-crt-runtime-l1-1-0.dll',
   'BINARY'),
  ('api-ms-win-crt-convert-l1-1-0.dll',
   'C:\\Program '
   'Files\\Java\\graalvm-jdk-21\\bin\\api-ms-win-crt-convert-l1-1-0.dll',
   'BINARY'),
  ('api-ms-win-crt-locale-l1-1-0.dll',
   'C:\\Program '
   'Files\\Java\\graalvm-jdk-21\\bin\\api-ms-win-crt-locale-l1-1-0.dll',
   'BINARY'),
  ('api-ms-win-crt-utility-l1-1-0.dll',
   'C:\\Program '
   'Files\\Java\\graalvm-jdk-21\\bin\\api-ms-win-crt-utility-l1-1-0.dll',
   'BINARY'),
  ('PySide6\\Qt6Network.dll',
   'C:\\Users\\Fallasin\\Documents\\QtProjects\\untitled2\\venv\\Lib\\site-packages\\PySide6\\Qt6Network.dll',
   'BINARY'),
  ('PySide6\\Qt6Core.dll',
   'C:\\Users\\Fallasin\\Documents\\QtProjects\\untitled2\\venv\\Lib\\site-packages\\PySide6\\Qt6Core.dll',
   'BINARY'),
  ('VCRUNTIME140_1.dll', 'C:\\Python311\\VCRUNTIME140_1.dll', 'BINARY'),
  ('shiboken6\\MSVCP140.dll',
   'C:\\Users\\Fallasin\\Documents\\QtProjects\\untitled2\\venv\\Lib\\site-packages\\shiboken6\\MSVCP140.dll',
   'BINARY'),
  ('PySide6\\Qt6Gui.dll',
   'C:\\Users\\Fallasin\\Documents\\QtProjects\\untitled2\\venv\\Lib\\site-packages\\PySide6\\Qt6Gui.dll',
   'BINARY'),
  ('PySide6\\Qt6Pdf.dll',
   'C:\\Users\\Fallasin\\Documents\\QtProjects\\untitled2\\venv\\Lib\\site-packages\\PySide6\\Qt6Pdf.dll',
   'BINARY'),
  ('PySide6\\Qt6VirtualKeyboard.dll',
   'C:\\Users\\Fallasin\\Documents\\QtProjects\\untitled2\\venv\\Lib\\site-packages\\PySide6\\Qt6VirtualKeyboard.dll',
   'BINARY'),
  ('PySide6\\Qt6Svg.dll',
   'C:\\Users\\Fallasin\\Documents\\QtProjects\\untitled2\\venv\\Lib\\site-packages\\PySide6\\Qt6Svg.dll',
   'BINARY'),
  ('PySide6\\Qt6Widgets.dll',
   'C:\\Users\\Fallasin\\Documents\\QtProjects\\untitled2\\venv\\Lib\\site-packages\\PySide6\\Qt6Widgets.dll',
   'BINARY'),
  ('libcrypto-3.dll', 'C:\\Python311\\DLLs\\libcrypto-3.dll', 'BINARY'),
  ('libffi-8.dll', 'C:\\Python311\\DLLs\\libffi-8.dll', 'BINARY'),
  ('libssl-3.dll', 'C:\\Python311\\DLLs\\libssl-3.dll', 'BINARY'),
  ('PySide6\\pyside6.abi3.dll',
   'C:\\Users\\Fallasin\\Documents\\QtProjects\\untitled2\\venv\\Lib\\site-packages\\PySide6\\pyside6.abi3.dll',
   'BINARY'),
  ('PySide6\\VCRUNTIME140.dll',
   'C:\\Users\\Fallasin\\Documents\\QtProjects\\untitled2\\venv\\Lib\\site-packages\\PySide6\\VCRUNTIME140.dll',
   'BINARY'),
  ('PySide6\\MSVCP140.dll',
   'C:\\Users\\Fallasin\\Documents\\QtProjects\\untitled2\\venv\\Lib\\site-packages\\PySide6\\MSVCP140.dll',
   'BINARY'),
  ('python3.dll', 'C:\\Python311\\python3.dll', 'BINARY'),
  ('PySide6\\VCRUNTIME140_1.dll',
   'C:\\Users\\Fallasin\\Documents\\QtProjects\\untitled2\\venv\\Lib\\site-packages\\PySide6\\VCRUNTIME140_1.dll',
   'BINARY'),
  ('shiboken6\\shiboken6.abi3.dll',
   'C:\\Users\\Fallasin\\Documents\\QtProjects\\untitled2\\venv\\Lib\\site-packages\\shiboken6\\shiboken6.abi3.dll',
   'BINARY'),
  ('shiboken6\\VCRUNTIME140_1.dll',
   'C:\\Users\\Fallasin\\Documents\\QtProjects\\untitled2\\venv\\Lib\\site-packages\\shiboken6\\VCRUNTIME140_1.dll',
   'BINARY'),
  ('shiboken6\\VCRUNTIME140.dll',
   'C:\\Users\\Fallasin\\Documents\\QtProjects\\untitled2\\venv\\Lib\\site-packages\\shiboken6\\VCRUNTIME140.dll',
   'BINARY'),
  ('PySide6\\MSVCP140_2.dll',
   'C:\\Users\\Fallasin\\Documents\\QtProjects\\untitled2\\venv\\Lib\\site-packages\\PySide6\\MSVCP140_2.dll',
   'BINARY'),
  ('PySide6\\Qt6UiTools.dll',
   'C:\\Users\\Fallasin\\Documents\\QtProjects\\untitled2\\venv\\Lib\\site-packages\\PySide6\\Qt6UiTools.dll',
   'BINARY'),
  ('PySide6\\Qt6OpenGLWidgets.dll',
   'C:\\Users\\Fallasin\\Documents\\QtProjects\\untitled2\\venv\\Lib\\site-packages\\PySide6\\Qt6OpenGLWidgets.dll',
   'BINARY'),
  ('PySide6\\Qt6OpenGL.dll',
   'C:\\Users\\Fallasin\\Documents\\QtProjects\\untitled2\\venv\\Lib\\site-packages\\PySide6\\Qt6OpenGL.dll',
   'BINARY'),
  ('ucrtbase.dll',
   'C:\\Program Files\\Java\\graalvm-jdk-21\\bin\\ucrtbase.dll',
   'BINARY'),
  ('PySide6\\MSVCP140_1.dll',
   'C:\\Users\\Fallasin\\Documents\\QtProjects\\untitled2\\venv\\Lib\\site-packages\\PySide6\\MSVCP140_1.dll',
   'BINARY'),
  ('api-ms-win-core-synch-l1-2-0.dll',
   'C:\\Program '
   'Files\\Java\\graalvm-jdk-21\\bin\\api-ms-win-core-synch-l1-2-0.dll',
   'BINARY'),
  ('PySide6\\Qt6Quick.dll',
   'C:\\Users\\Fallasin\\Documents\\QtProjects\\untitled2\\venv\\Lib\\site-packages\\PySide6\\Qt6Quick.dll',
   'BINARY'),
  ('PySide6\\Qt6Qml.dll',
   'C:\\Users\\Fallasin\\Documents\\QtProjects\\untitled2\\venv\\Lib\\site-packages\\PySide6\\Qt6Qml.dll',
   'BINARY'),
  ('api-ms-win-core-interlocked-l1-1-0.dll',
   'C:\\Program '
   'Files\\Java\\graalvm-jdk-21\\bin\\api-ms-win-core-interlocked-l1-1-0.dll',
   'BINARY'),
  ('api-ms-win-core-file-l1-2-0.dll',
   'C:\\Program '
   'Files\\Java\\graalvm-jdk-21\\bin\\api-ms-win-core-file-l1-2-0.dll',
   'BINARY'),
  ('api-ms-win-core-rtlsupport-l1-1-0.dll',
   'C:\\Program '
   'Files\\Java\\graalvm-jdk-21\\bin\\api-ms-win-core-rtlsupport-l1-1-0.dll',
   'BINARY'),
  ('api-ms-win-core-file-l1-1-0.dll',
   'C:\\Program '
   'Files\\Java\\graalvm-jdk-21\\bin\\api-ms-win-core-file-l1-1-0.dll',
   'BINARY'),
  ('api-ms-win-core-sysinfo-l1-1-0.dll',
   'C:\\Program '
   'Files\\Java\\graalvm-jdk-21\\bin\\api-ms-win-core-sysinfo-l1-1-0.dll',
   'BINARY'),
  ('api-ms-win-core-file-l2-1-0.dll',
   'C:\\Program '
   'Files\\Java\\graalvm-jdk-21\\bin\\api-ms-win-core-file-l2-1-0.dll',
   'BINARY'),
  ('api-ms-win-core-util-l1-1-0.dll',
   'C:\\Program '
   'Files\\Java\\graalvm-jdk-21\\bin\\api-ms-win-core-util-l1-1-0.dll',
   'BINARY'),
  ('api-ms-win-core-errorhandling-l1-1-0.dll',
   'C:\\Program '
   'Files\\Java\\graalvm-jdk-21\\bin\\api-ms-win-core-errorhandling-l1-1-0.dll',
   'BINARY'),
  ('api-ms-win-core-timezone-l1-1-0.dll',
   'C:\\Program '
   'Files\\Java\\graalvm-jdk-21\\bin\\api-ms-win-core-timezone-l1-1-0.dll',
   'BINARY'),
  ('api-ms-win-core-processthreads-l1-1-1.dll',
   'C:\\Program '
   'Files\\Java\\graalvm-jdk-21\\bin\\api-ms-win-core-processthreads-l1-1-1.dll',
   'BINARY'),
  ('api-ms-win-core-processthreads-l1-1-0.dll',
   'C:\\Program '
   'Files\\Java\\graalvm-jdk-21\\bin\\api-ms-win-core-processthreads-l1-1-0.dll',
   'BINARY'),
  ('api-ms-win-core-processenvironment-l1-1-0.dll',
   'C:\\Program '
   'Files\\Java\\graalvm-jdk-21\\bin\\api-ms-win-core-processenvironment-l1-1-0.dll',
   'BINARY'),
  ('api-ms-win-core-memory-l1-1-0.dll',
   'C:\\Program '
   'Files\\Java\\graalvm-jdk-21\\bin\\api-ms-win-core-memory-l1-1-0.dll',
   'BINARY'),
  ('api-ms-win-core-string-l1-1-0.dll',
   'C:\\Program '
   'Files\\Java\\graalvm-jdk-21\\bin\\api-ms-win-core-string-l1-1-0.dll',
   'BINARY'),
  ('api-ms-win-core-heap-l1-1-0.dll',
   'C:\\Program '
   'Files\\Java\\graalvm-jdk-21\\bin\\api-ms-win-core-heap-l1-1-0.dll',
   'BINARY'),
  ('api-ms-win-core-localization-l1-2-0.dll',
   'C:\\Program '
   'Files\\Java\\graalvm-jdk-21\\bin\\api-ms-win-core-localization-l1-2-0.dll',
   'BINARY'),
  ('api-ms-win-core-libraryloader-l1-1-0.dll',
   'C:\\Program '
   'Files\\Java\\graalvm-jdk-21\\bin\\api-ms-win-core-libraryloader-l1-1-0.dll',
   'BINARY'),
  ('api-ms-win-core-debug-l1-1-0.dll',
   'C:\\Program '
   'Files\\Java\\graalvm-jdk-21\\bin\\api-ms-win-core-debug-l1-1-0.dll',
   'BINARY'),
  ('api-ms-win-core-profile-l1-1-0.dll',
   'C:\\Program '
   'Files\\Java\\graalvm-jdk-21\\bin\\api-ms-win-core-profile-l1-1-0.dll',
   'BINARY'),
  ('api-ms-win-core-namedpipe-l1-1-0.dll',
   'C:\\Program '
   'Files\\Java\\graalvm-jdk-21\\bin\\api-ms-win-core-namedpipe-l1-1-0.dll',
   'BINARY'),
  ('api-ms-win-core-datetime-l1-1-0.dll',
   'C:\\Program '
   'Files\\Java\\graalvm-jdk-21\\bin\\api-ms-win-core-datetime-l1-1-0.dll',
   'BINARY'),
  ('api-ms-win-core-synch-l1-1-0.dll',
   'C:\\Program '
   'Files\\Java\\graalvm-jdk-21\\bin\\api-ms-win-core-synch-l1-1-0.dll',
   'BINARY'),
  ('api-ms-win-core-handle-l1-1-0.dll',
   'C:\\Program '
   'Files\\Java\\graalvm-jdk-21\\bin\\api-ms-win-core-handle-l1-1-0.dll',
   'BINARY'),
  ('api-ms-win-core-console-l1-1-0.dll',
   'C:\\Program '
   'Files\\Java\\graalvm-jdk-21\\bin\\api-ms-win-core-console-l1-1-0.dll',
   'BINARY'),
  ('PySide6\\Qt6QmlModels.dll',
   'C:\\Users\\Fallasin\\Documents\\QtProjects\\untitled2\\venv\\Lib\\site-packages\\PySide6\\Qt6QmlModels.dll',
   'BINARY')],
 [],
 [],
 [('base_library.zip',
   'C:\\Users\\Fallasin\\Documents\\QtProjects\\WindowsInstallationWizard\\InstallationWizardGui\\build\\main\\base_library.zip',
   'DATA'),
  ('PySide6\\translations\\qt_en.qm',
   'C:\\Users\\Fallasin\\Documents\\QtProjects\\untitled2\\venv\\Lib\\site-packages\\PySide6\\translations\\qt_en.qm',
   'DATA'),
  ('PySide6\\translations\\qt_help_ru.qm',
   'C:\\Users\\Fallasin\\Documents\\QtProjects\\untitled2\\venv\\Lib\\site-packages\\PySide6\\translations\\qt_help_ru.qm',
   'DATA'),
  ('PySide6\\translations\\qt_hu.qm',
   'C:\\Users\\Fallasin\\Documents\\QtProjects\\untitled2\\venv\\Lib\\site-packages\\PySide6\\translations\\qt_hu.qm',
   'DATA'),
  ('PySide6\\translations\\qt_help_ja.qm',
   'C:\\Users\\Fallasin\\Documents\\QtProjects\\untitled2\\venv\\Lib\\site-packages\\PySide6\\translations\\qt_help_ja.qm',
   'DATA'),
  ('PySide6\\translations\\qt_ca.qm',
   'C:\\Users\\Fallasin\\Documents\\QtProjects\\untitled2\\venv\\Lib\\site-packages\\PySide6\\translations\\qt_ca.qm',
   'DATA'),
  ('PySide6\\translations\\qt_da.qm',
   'C:\\Users\\Fallasin\\Documents\\QtProjects\\untitled2\\venv\\Lib\\site-packages\\PySide6\\translations\\qt_da.qm',
   'DATA'),
  ('PySide6\\translations\\qtbase_cs.qm',
   'C:\\Users\\Fallasin\\Documents\\QtProjects\\untitled2\\venv\\Lib\\site-packages\\PySide6\\translations\\qtbase_cs.qm',
   'DATA'),
  ('PySide6\\translations\\qt_help_hu.qm',
   'C:\\Users\\Fallasin\\Documents\\QtProjects\\untitled2\\venv\\Lib\\site-packages\\PySide6\\translations\\qt_help_hu.qm',
   'DATA'),
  ('PySide6\\translations\\qtbase_pt_BR.qm',
   'C:\\Users\\Fallasin\\Documents\\QtProjects\\untitled2\\venv\\Lib\\site-packages\\PySide6\\translations\\qtbase_pt_BR.qm',
   'DATA'),
  ('PySide6\\translations\\qt_help_ko.qm',
   'C:\\Users\\Fallasin\\Documents\\QtProjects\\untitled2\\venv\\Lib\\site-packages\\PySide6\\translations\\qt_help_ko.qm',
   'DATA'),
  ('PySide6\\translations\\qt_help_zh_TW.qm',
   'C:\\Users\\Fallasin\\Documents\\QtProjects\\untitled2\\venv\\Lib\\site-packages\\PySide6\\translations\\qt_help_zh_TW.qm',
   'DATA'),
  ('PySide6\\translations\\qtbase_bg.qm',
   'C:\\Users\\Fallasin\\Documents\\QtProjects\\untitled2\\venv\\Lib\\site-packages\\PySide6\\translations\\qtbase_bg.qm',
   'DATA'),
  ('PySide6\\translations\\qt_de.qm',
   'C:\\Users\\Fallasin\\Documents\\QtProjects\\untitled2\\venv\\Lib\\site-packages\\PySide6\\translations\\qt_de.qm',
   'DATA'),
  ('PySide6\\translations\\qt_cs.qm',
   'C:\\Users\\Fallasin\\Documents\\QtProjects\\untitled2\\venv\\Lib\\site-packages\\PySide6\\translations\\qt_cs.qm',
   'DATA'),
  ('PySide6\\translations\\qt_fa.qm',
   'C:\\Users\\Fallasin\\Documents\\QtProjects\\untitled2\\venv\\Lib\\site-packages\\PySide6\\translations\\qt_fa.qm',
   'DATA'),
  ('PySide6\\translations\\qt_help_ar.qm',
   'C:\\Users\\Fallasin\\Documents\\QtProjects\\untitled2\\venv\\Lib\\site-packages\\PySide6\\translations\\qt_help_ar.qm',
   'DATA'),
  ('PySide6\\translations\\qt_help_ca.qm',
   'C:\\Users\\Fallasin\\Documents\\QtProjects\\untitled2\\venv\\Lib\\site-packages\\PySide6\\translations\\qt_help_ca.qm',
   'DATA'),
  ('PySide6\\translations\\qt_zh_CN.qm',
   'C:\\Users\\Fallasin\\Documents\\QtProjects\\untitled2\\venv\\Lib\\site-packages\\PySide6\\translations\\qt_zh_CN.qm',
   'DATA'),
  ('PySide6\\translations\\qtbase_tr.qm',
   'C:\\Users\\Fallasin\\Documents\\QtProjects\\untitled2\\venv\\Lib\\site-packages\\PySide6\\translations\\qtbase_tr.qm',
   'DATA'),
  ('PySide6\\translations\\qt_lt.qm',
   'C:\\Users\\Fallasin\\Documents\\QtProjects\\untitled2\\venv\\Lib\\site-packages\\PySide6\\translations\\qt_lt.qm',
   'DATA'),
  ('PySide6\\translations\\qtbase_lv.qm',
   'C:\\Users\\Fallasin\\Documents\\QtProjects\\untitled2\\venv\\Lib\\site-packages\\PySide6\\translations\\qtbase_lv.qm',
   'DATA'),
  ('PySide6\\translations\\qtbase_zh_CN.qm',
   'C:\\Users\\Fallasin\\Documents\\QtProjects\\untitled2\\venv\\Lib\\site-packages\\PySide6\\translations\\qtbase_zh_CN.qm',
   'DATA'),
  ('PySide6\\translations\\qt_ru.qm',
   'C:\\Users\\Fallasin\\Documents\\QtProjects\\untitled2\\venv\\Lib\\site-packages\\PySide6\\translations\\qt_ru.qm',
   'DATA'),
  ('PySide6\\translations\\qt_ar.qm',
   'C:\\Users\\Fallasin\\Documents\\QtProjects\\untitled2\\venv\\Lib\\site-packages\\PySide6\\translations\\qt_ar.qm',
   'DATA'),
  ('PySide6\\translations\\qt_help_bg.qm',
   'C:\\Users\\Fallasin\\Documents\\QtProjects\\untitled2\\venv\\Lib\\site-packages\\PySide6\\translations\\qt_help_bg.qm',
   'DATA'),
  ('PySide6\\translations\\qt_help_es.qm',
   'C:\\Users\\Fallasin\\Documents\\QtProjects\\untitled2\\venv\\Lib\\site-packages\\PySide6\\translations\\qt_help_es.qm',
   'DATA'),
  ('PySide6\\translations\\qtbase_he.qm',
   'C:\\Users\\Fallasin\\Documents\\QtProjects\\untitled2\\venv\\Lib\\site-packages\\PySide6\\translations\\qtbase_he.qm',
   'DATA'),
  ('PySide6\\translations\\qtbase_es.qm',
   'C:\\Users\\Fallasin\\Documents\\QtProjects\\untitled2\\venv\\Lib\\site-packages\\PySide6\\translations\\qtbase_es.qm',
   'DATA'),
  ('PySide6\\translations\\qtbase_it.qm',
   'C:\\Users\\Fallasin\\Documents\\QtProjects\\untitled2\\venv\\Lib\\site-packages\\PySide6\\translations\\qtbase_it.qm',
   'DATA'),
  ('PySide6\\translations\\qt_help_cs.qm',
   'C:\\Users\\Fallasin\\Documents\\QtProjects\\untitled2\\venv\\Lib\\site-packages\\PySide6\\translations\\qt_help_cs.qm',
   'DATA'),
  ('PySide6\\translations\\qtbase_ru.qm',
   'C:\\Users\\Fallasin\\Documents\\QtProjects\\untitled2\\venv\\Lib\\site-packages\\PySide6\\translations\\qtbase_ru.qm',
   'DATA'),
  ('PySide6\\translations\\qtbase_hr.qm',
   'C:\\Users\\Fallasin\\Documents\\QtProjects\\untitled2\\venv\\Lib\\site-packages\\PySide6\\translations\\qtbase_hr.qm',
   'DATA'),
  ('PySide6\\translations\\qtbase_fa.qm',
   'C:\\Users\\Fallasin\\Documents\\QtProjects\\untitled2\\venv\\Lib\\site-packages\\PySide6\\translations\\qtbase_fa.qm',
   'DATA'),
  ('PySide6\\translations\\qtbase_uk.qm',
   'C:\\Users\\Fallasin\\Documents\\QtProjects\\untitled2\\venv\\Lib\\site-packages\\PySide6\\translations\\qtbase_uk.qm',
   'DATA'),
  ('PySide6\\translations\\qtbase_fr.qm',
   'C:\\Users\\Fallasin\\Documents\\QtProjects\\untitled2\\venv\\Lib\\site-packages\\PySide6\\translations\\qtbase_fr.qm',
   'DATA'),
  ('PySide6\\translations\\qtbase_sk.qm',
   'C:\\Users\\Fallasin\\Documents\\QtProjects\\untitled2\\venv\\Lib\\site-packages\\PySide6\\translations\\qtbase_sk.qm',
   'DATA'),
  ('PySide6\\translations\\qt_fi.qm',
   'C:\\Users\\Fallasin\\Documents\\QtProjects\\untitled2\\venv\\Lib\\site-packages\\PySide6\\translations\\qt_fi.qm',
   'DATA'),
  ('PySide6\\translations\\qt_help_gl.qm',
   'C:\\Users\\Fallasin\\Documents\\QtProjects\\untitled2\\venv\\Lib\\site-packages\\PySide6\\translations\\qt_help_gl.qm',
   'DATA'),
  ('PySide6\\translations\\qt_hr.qm',
   'C:\\Users\\Fallasin\\Documents\\QtProjects\\untitled2\\venv\\Lib\\site-packages\\PySide6\\translations\\qt_hr.qm',
   'DATA'),
  ('PySide6\\translations\\qt_sv.qm',
   'C:\\Users\\Fallasin\\Documents\\QtProjects\\untitled2\\venv\\Lib\\site-packages\\PySide6\\translations\\qt_sv.qm',
   'DATA'),
  ('PySide6\\translations\\qtbase_zh_TW.qm',
   'C:\\Users\\Fallasin\\Documents\\QtProjects\\untitled2\\venv\\Lib\\site-packages\\PySide6\\translations\\qtbase_zh_TW.qm',
   'DATA'),
  ('PySide6\\translations\\qt_ko.qm',
   'C:\\Users\\Fallasin\\Documents\\QtProjects\\untitled2\\venv\\Lib\\site-packages\\PySide6\\translations\\qt_ko.qm',
   'DATA'),
  ('PySide6\\translations\\qt_es.qm',
   'C:\\Users\\Fallasin\\Documents\\QtProjects\\untitled2\\venv\\Lib\\site-packages\\PySide6\\translations\\qt_es.qm',
   'DATA'),
  ('PySide6\\translations\\qtbase_pl.qm',
   'C:\\Users\\Fallasin\\Documents\\QtProjects\\untitled2\\venv\\Lib\\site-packages\\PySide6\\translations\\qtbase_pl.qm',
   'DATA'),
  ('PySide6\\translations\\qtbase_nn.qm',
   'C:\\Users\\Fallasin\\Documents\\QtProjects\\untitled2\\venv\\Lib\\site-packages\\PySide6\\translations\\qtbase_nn.qm',
   'DATA'),
  ('PySide6\\translations\\qtbase_en.qm',
   'C:\\Users\\Fallasin\\Documents\\QtProjects\\untitled2\\venv\\Lib\\site-packages\\PySide6\\translations\\qtbase_en.qm',
   'DATA'),
  ('PySide6\\translations\\qt_sl.qm',
   'C:\\Users\\Fallasin\\Documents\\QtProjects\\untitled2\\venv\\Lib\\site-packages\\PySide6\\translations\\qt_sl.qm',
   'DATA'),
  ('PySide6\\translations\\qtbase_ja.qm',
   'C:\\Users\\Fallasin\\Documents\\QtProjects\\untitled2\\venv\\Lib\\site-packages\\PySide6\\translations\\qtbase_ja.qm',
   'DATA'),
  ('PySide6\\translations\\qtbase_ar.qm',
   'C:\\Users\\Fallasin\\Documents\\QtProjects\\untitled2\\venv\\Lib\\site-packages\\PySide6\\translations\\qtbase_ar.qm',
   'DATA'),
  ('PySide6\\translations\\qt_gl.qm',
   'C:\\Users\\Fallasin\\Documents\\QtProjects\\untitled2\\venv\\Lib\\site-packages\\PySide6\\translations\\qt_gl.qm',
   'DATA'),
  ('PySide6\\translations\\qtbase_ko.qm',
   'C:\\Users\\Fallasin\\Documents\\QtProjects\\untitled2\\venv\\Lib\\site-packages\\PySide6\\translations\\qtbase_ko.qm',
   'DATA'),
  ('PySide6\\translations\\qt_pt_BR.qm',
   'C:\\Users\\Fallasin\\Documents\\QtProjects\\untitled2\\venv\\Lib\\site-packages\\PySide6\\translations\\qt_pt_BR.qm',
   'DATA'),
  ('PySide6\\translations\\qtbase_fi.qm',
   'C:\\Users\\Fallasin\\Documents\\QtProjects\\untitled2\\venv\\Lib\\site-packages\\PySide6\\translations\\qtbase_fi.qm',
   'DATA'),
  ('PySide6\\translations\\qt_help_de.qm',
   'C:\\Users\\Fallasin\\Documents\\QtProjects\\untitled2\\venv\\Lib\\site-packages\\PySide6\\translations\\qt_help_de.qm',
   'DATA'),
  ('PySide6\\translations\\qtbase_hu.qm',
   'C:\\Users\\Fallasin\\Documents\\QtProjects\\untitled2\\venv\\Lib\\site-packages\\PySide6\\translations\\qtbase_hu.qm',
   'DATA'),
  ('PySide6\\translations\\qt_it.qm',
   'C:\\Users\\Fallasin\\Documents\\QtProjects\\untitled2\\venv\\Lib\\site-packages\\PySide6\\translations\\qt_it.qm',
   'DATA'),
  ('PySide6\\translations\\qt_help_hr.qm',
   'C:\\Users\\Fallasin\\Documents\\QtProjects\\untitled2\\venv\\Lib\\site-packages\\PySide6\\translations\\qt_help_hr.qm',
   'DATA'),
  ('PySide6\\translations\\qt_he.qm',
   'C:\\Users\\Fallasin\\Documents\\QtProjects\\untitled2\\venv\\Lib\\site-packages\\PySide6\\translations\\qt_he.qm',
   'DATA'),
  ('PySide6\\translations\\qt_help_en.qm',
   'C:\\Users\\Fallasin\\Documents\\QtProjects\\untitled2\\venv\\Lib\\site-packages\\PySide6\\translations\\qt_help_en.qm',
   'DATA'),
  ('PySide6\\translations\\qt_help_sk.qm',
   'C:\\Users\\Fallasin\\Documents\\QtProjects\\untitled2\\venv\\Lib\\site-packages\\PySide6\\translations\\qt_help_sk.qm',
   'DATA'),
  ('PySide6\\translations\\qt_bg.qm',
   'C:\\Users\\Fallasin\\Documents\\QtProjects\\untitled2\\venv\\Lib\\site-packages\\PySide6\\translations\\qt_bg.qm',
   'DATA'),
  ('PySide6\\translations\\qt_pt_PT.qm',
   'C:\\Users\\Fallasin\\Documents\\QtProjects\\untitled2\\venv\\Lib\\site-packages\\PySide6\\translations\\qt_pt_PT.qm',
   'DATA'),
  ('PySide6\\translations\\qt_help_uk.qm',
   'C:\\Users\\Fallasin\\Documents\\QtProjects\\untitled2\\venv\\Lib\\site-packages\\PySide6\\translations\\qt_help_uk.qm',
   'DATA'),
  ('PySide6\\translations\\qt_help_fr.qm',
   'C:\\Users\\Fallasin\\Documents\\QtProjects\\untitled2\\venv\\Lib\\site-packages\\PySide6\\translations\\qt_help_fr.qm',
   'DATA'),
  ('PySide6\\translations\\qtbase_gd.qm',
   'C:\\Users\\Fallasin\\Documents\\QtProjects\\untitled2\\venv\\Lib\\site-packages\\PySide6\\translations\\qtbase_gd.qm',
   'DATA'),
  ('PySide6\\translations\\qt_help_da.qm',
   'C:\\Users\\Fallasin\\Documents\\QtProjects\\untitled2\\venv\\Lib\\site-packages\\PySide6\\translations\\qt_help_da.qm',
   'DATA'),
  ('PySide6\\translations\\qt_ja.qm',
   'C:\\Users\\Fallasin\\Documents\\QtProjects\\untitled2\\venv\\Lib\\site-packages\\PySide6\\translations\\qt_ja.qm',
   'DATA'),
  ('PySide6\\translations\\qt_tr.qm',
   'C:\\Users\\Fallasin\\Documents\\QtProjects\\untitled2\\venv\\Lib\\site-packages\\PySide6\\translations\\qt_tr.qm',
   'DATA'),
  ('PySide6\\translations\\qt_nn.qm',
   'C:\\Users\\Fallasin\\Documents\\QtProjects\\untitled2\\venv\\Lib\\site-packages\\PySide6\\translations\\qt_nn.qm',
   'DATA'),
  ('PySide6\\translations\\qt_help_tr.qm',
   'C:\\Users\\Fallasin\\Documents\\QtProjects\\untitled2\\venv\\Lib\\site-packages\\PySide6\\translations\\qt_help_tr.qm',
   'DATA'),
  ('PySide6\\translations\\qt_nl.qm',
   'C:\\Users\\Fallasin\\Documents\\QtProjects\\untitled2\\venv\\Lib\\site-packages\\PySide6\\translations\\qt_nl.qm',
   'DATA'),
  ('PySide6\\translations\\qt_pl.qm',
   'C:\\Users\\Fallasin\\Documents\\QtProjects\\untitled2\\venv\\Lib\\site-packages\\PySide6\\translations\\qt_pl.qm',
   'DATA'),
  ('PySide6\\translations\\qt_help_pt_BR.qm',
   'C:\\Users\\Fallasin\\Documents\\QtProjects\\untitled2\\venv\\Lib\\site-packages\\PySide6\\translations\\qt_help_pt_BR.qm',
   'DATA'),
  ('PySide6\\translations\\qt_help_it.qm',
   'C:\\Users\\Fallasin\\Documents\\QtProjects\\untitled2\\venv\\Lib\\site-packages\\PySide6\\translations\\qt_help_it.qm',
   'DATA'),
  ('PySide6\\translations\\qt_help_sl.qm',
   'C:\\Users\\Fallasin\\Documents\\QtProjects\\untitled2\\venv\\Lib\\site-packages\\PySide6\\translations\\qt_help_sl.qm',
   'DATA'),
  ('PySide6\\translations\\qt_zh_TW.qm',
   'C:\\Users\\Fallasin\\Documents\\QtProjects\\untitled2\\venv\\Lib\\site-packages\\PySide6\\translations\\qt_zh_TW.qm',
   'DATA'),
  ('PySide6\\translations\\qtbase_de.qm',
   'C:\\Users\\Fallasin\\Documents\\QtProjects\\untitled2\\venv\\Lib\\site-packages\\PySide6\\translations\\qtbase_de.qm',
   'DATA'),
  ('PySide6\\translations\\qt_gd.qm',
   'C:\\Users\\Fallasin\\Documents\\QtProjects\\untitled2\\venv\\Lib\\site-packages\\PySide6\\translations\\qt_gd.qm',
   'DATA'),
  ('PySide6\\translations\\qtbase_da.qm',
   'C:\\Users\\Fallasin\\Documents\\QtProjects\\untitled2\\venv\\Lib\\site-packages\\PySide6\\translations\\qtbase_da.qm',
   'DATA'),
  ('PySide6\\translations\\qt_help_zh_CN.qm',
   'C:\\Users\\Fallasin\\Documents\\QtProjects\\untitled2\\venv\\Lib\\site-packages\\PySide6\\translations\\qt_help_zh_CN.qm',
   'DATA'),
  ('PySide6\\translations\\qt_help_nl.qm',
   'C:\\Users\\Fallasin\\Documents\\QtProjects\\untitled2\\venv\\Lib\\site-packages\\PySide6\\translations\\qt_help_nl.qm',
   'DATA'),
  ('PySide6\\translations\\qt_uk.qm',
   'C:\\Users\\Fallasin\\Documents\\QtProjects\\untitled2\\venv\\Lib\\site-packages\\PySide6\\translations\\qt_uk.qm',
   'DATA'),
  ('PySide6\\translations\\qt_lv.qm',
   'C:\\Users\\Fallasin\\Documents\\QtProjects\\untitled2\\venv\\Lib\\site-packages\\PySide6\\translations\\qt_lv.qm',
   'DATA'),
  ('PySide6\\translations\\qt_fr.qm',
   'C:\\Users\\Fallasin\\Documents\\QtProjects\\untitled2\\venv\\Lib\\site-packages\\PySide6\\translations\\qt_fr.qm',
   'DATA'),
  ('PySide6\\translations\\qtbase_ca.qm',
   'C:\\Users\\Fallasin\\Documents\\QtProjects\\untitled2\\venv\\Lib\\site-packages\\PySide6\\translations\\qtbase_ca.qm',
   'DATA'),
  ('PySide6\\translations\\qt_help_pl.qm',
   'C:\\Users\\Fallasin\\Documents\\QtProjects\\untitled2\\venv\\Lib\\site-packages\\PySide6\\translations\\qt_help_pl.qm',
   'DATA'),
  ('PySide6\\translations\\qtbase_nl.qm',
   'C:\\Users\\Fallasin\\Documents\\QtProjects\\untitled2\\venv\\Lib\\site-packages\\PySide6\\translations\\qtbase_nl.qm',
   'DATA'),
  ('PySide6\\translations\\qt_sk.qm',
   'C:\\Users\\Fallasin\\Documents\\QtProjects\\untitled2\\venv\\Lib\\site-packages\\PySide6\\translations\\qt_sk.qm',
   'DATA'),
  ('PySide6\\translations\\qt_help_nn.qm',
   'C:\\Users\\Fallasin\\Documents\\QtProjects\\untitled2\\venv\\Lib\\site-packages\\PySide6\\translations\\qt_help_nn.qm',
   'DATA')])
